Difftest_Platform/oscpu-framework/projects/zerocpu/logs/top_dump.vcd
$version Generated by VerilatedVcd $end
$date Mon May 30 09:46:39 2022 $end
$timescale 1s $end

 $scope module TOP $end
  $var wire  1 r clk $end
  $var wire  1 s rst_n $end
  $scope module core $end
   $var wire  1 z aluBsrc $end
   $var wire  4 f aluCtl [3:0] $end
   $var wire 64 t busA [63:0] $end
   $var wire 64 v busB [63:0] $end
   $var wire  1 r clk $end
   $var wire 64 j imm [63:0] $end
   $var wire 64 t ina [63:0] $end
   $var wire 64 j inb [63:0] $end
   $var wire 32 e inst [31:0] $end
   $var wire 12 d nxt_pc [11:0] $end
   $var wire  1 z rdWriteEn $end
   $var wire  5 i rd_addr [4:0] $end
   $var wire 64 x res [63:0] $end
   $var wire  5 g rs1_addr [4:0] $end
   $var wire  5 h rs2_addr [4:0] $end
   $var wire  1 s rst_n $end
   $scope module iram_inst $end
    $var wire  1 r clk $end
    $var wire 12 d rd_addr [11:0] $end
    $var wire 32 e rd_data [31:0] $end
    $var wire  1 z rd_en $end
    $var wire 12 | wr_addr [11:0] $end
    $var wire 32 } wr_data [31:0] $end
    $var wire  1 { wr_en $end
   $upscope $end
   $scope module u_alu $end
    $var wire  4 f aluCtl [3:0] $end
    $var wire 64 t ina [63:0] $end
    $var wire 64 j inb [63:0] $end
    $var wire 64 x outy [63:0] $end
   $upscope $end
   $scope module u_contrGen $end
    $var wire  1 p ADDI $end
    $var wire  1 z aluBsrc $end
    $var wire  4 f aluCtl [3:0] $end
    $var wire  8 q aluType [7:0] $end
    $var wire  3 m funt3 [2:0] $end
    $var wire  1 o funt3_000 $end
    $var wire 64 j imm [63:0] $end
    $var wire 32 e inst [31:0] $end
    $var wire  7 l opcode [6:0] $end
    $var wire  1 n opcode_001_0011 $end
    $var wire  1 z rdWriteEn $end
    $var wire  5 i rd_addr [4:0] $end
    $var wire  5 g rs1_addr [4:0] $end
    $var wire  5 h rs2_addr [4:0] $end
   $upscope $end
   $scope module u_pcgen $end
    $var wire  1 r clk $end
    $var wire 12 d nxt_pc [11:0] $end
    $var wire 12 d pc [11:0] $end
    $var wire  1 s rst_n $end
   $upscope $end
   $scope module u_regs $end
    $var wire  5 g Ra [4:0] $end
    $var wire  5 h Rb [4:0] $end
    $var wire  1 z RegWr $end
    $var wire  5 i Rw [4:0] $end
    $var wire 64 t busA [63:0] $end
    $var wire 64 v busB [63:0] $end
    $var wire 64 x busW [63:0] $end
    $var wire  1 r clk $end
    $var wire 32 # i [31:0] $end
    $var wire 64 $ regsheap[0] [63:0] $end
    $var wire 64 8 regsheap[10] [63:0] $end
    $var wire 64 : regsheap[11] [63:0] $end
    $var wire 64 < regsheap[12] [63:0] $end
    $var wire 64 > regsheap[13] [63:0] $end
    $var wire 64 @ regsheap[14] [63:0] $end
    $var wire 64 B regsheap[15] [63:0] $end
    $var wire 64 D regsheap[16] [63:0] $end
    $var wire 64 F regsheap[17] [63:0] $end
    $var wire 64 H regsheap[18] [63:0] $end
    $var wire 64 J regsheap[19] [63:0] $end
    $var wire 64 & regsheap[1] [63:0] $end
    $var wire 64 L regsheap[20] [63:0] $end
    $var wire 64 N regsheap[21] [63:0] $end
    $var wire 64 P regsheap[22] [63:0] $end
    $var wire 64 R regsheap[23] [63:0] $end
    $var wire 64 T regsheap[24] [63:0] $end
    $var wire 64 V regsheap[25] [63:0] $end
    $var wire 64 X regsheap[26] [63:0] $end
    $var wire 64 Z regsheap[27] [63:0] $end
    $var wire 64 \ regsheap[28] [63:0] $end
    $var wire 64 ^ regsheap[29] [63:0] $end
    $var wire 64 ( regsheap[2] [63:0] $end
    $var wire 64 ` regsheap[30] [63:0] $end
    $var wire 64 b regsheap[31] [63:0] $end
    $var wire 64 * regsheap[3] [63:0] $end
    $var wire 64 , regsheap[4] [63:0] $end
    $var wire 64 . regsheap[5] [63:0] $end
    $var wire 64 0 regsheap[6] [63:0] $end
    $var wire 64 2 regsheap[7] [63:0] $end
    $var wire 64 4 regsheap[8] [63:0] $end
    $var wire 64 6 regsheap[9] [63:0] $end
   $upscope $end
  $upscope $end
 $upscope $end
$enddefinitions $end


#0
b00000000000000000000000000100000 #
b0000000000000000000000000000000000000000000000000000000000000000 $
b0000000000000000000000000000000000000000000000000000000000000000 &
b0000000000000000000000000000000000000000000000000000000000000000 (
b0000000000000000000000000000000000000000000000000000000000000000 *
b0000000000000000000000000000000000000000000000000000000000000000 ,
b0000000000000000000000000000000000000000000000000000000000000000 .
b0000000000000000000000000000000000000000000000000000000000000000 0
b0000000000000000000000000000000000000000000000000000000000000000 2
b0000000000000000000000000000000000000000000000000000000000000000 4
b0000000000000000000000000000000000000000000000000000000000000000 6
b0000000000000000000000000000000000000000000000000000000000000000 8
b0000000000000000000000000000000000000000000000000000000000000000 :
b0000000000000000000000000000000000000000000000000000000000000000 <
b0000000000000000000000000000000000000000000000000000000000000000 >
b0000000000000000000000000000000000000000000000000000000000000000 @
b0000000000000000000000000000000000000000000000000000000000000000 B
b0000000000000000000000000000000000000000000000000000000000000000 D
b0000000000000000000000000000000000000000000000000000000000000000 F
b0000000000000000000000000000000000000000000000000000000000000000 H
b0000000000000000000000000000000000000000000000000000000000000000 J
b0000000000000000000000000000000000000000000000000000000000000000 L
b0000000000000000000000000000000000000000000000000000000000000000 N
b0000000000000000000000000000000000000000000000000000000000000000 P
b0000000000000000000000000000000000000000000000000000000000000000 R
b0000000000000000000000000000000000000000000000000000000000000000 T
b0000000000000000000000000000000000000000000000000000000000000000 V
b0000000000000000000000000000000000000000000000000000000000000000 X
b0000000000000000000000000000000000000000000000000000000000000000 Z
b0000000000000000000000000000000000000000000000000000000000000000 \
b0000000000000000000000000000000000000000000000000000000000000000 ^
b0000000000000000000000000000000000000000000000000000000000000000 `
b0000000000000000000000000000000000000000000000000000000000000000 b
b000000000000 d
b00000000000000000000000000000000 e
b0000 f
b00000 g
b00000 h
b00000 i
b0000000000000000000000000000000000000000000000000000000000000000 j
b0000000 l
b000 m
0n
1o
0p
b00000000 q
0r
0s
b0000000000000000000000000000000000000000000000000000000000000000 t
b0000000000000000000000000000000000000000000000000000000000000000 v
b0000000000000000000000000000000000000000000000000000000000000000 x
1z
0{
b000000000000 |
b00000000000000000000000000000000 }
#1
1r
#2
0r
#3
1r
#4
0r
#5
1r
#6
0r
#7
1r
#8
0r
#9
1r
#10
0r
1s
#11
b000000000100 d
b00100001000000101000001100010011 e
b00101 g
b10000 h
b00110 i
b0000000000000000000000000000000000000000000000000000001000010000 j
b0010011 l
1n
1p
b00000001 q
1r
b0000000000000000000000000000000000000000000000000000001000010000 x
#12
b0000000000000000000000000000000000000000000000000000001000010000 0
0r
#13
b000000001000 d
b00000000000000000000000000000000 e
b00000 g
b00000 h
b00000 i
b0000000000000000000000000000000000000000000000000000000000000000 j
b0000000 l
0n
0p
b00000000 q
1r
b0000000000000000000000000000000000000000000000000000000000000000 x
#14
0r
#15
b000000001100 d
1r
#16
0r
#17
b000000010000 d
1r
#18
0r
#19
b000000010100 d
1r
