Difftest_Platform/oscpu-framework/projects/cpu_diff/build/Check_first_Inst_Commit.vcd
$date
	Tue Jun  7 13:58:06 2022
$end
$version
	GTKWave Analyzer v3.3.103 (w)1999-2019 BSI
$end
$timescale
	1ps
$end
$scope module TOP $end
$var wire 1 " clock $end
$scope module SimTop $end
$var wire 32 $ r_instr[31:0] $end
$var wire 64 # r_pc[63:0] $end
$scope module Rvcpu $end
$var wire 32 & instD[31:0] $end
$var wire 32 ' instE[31:0] $end
$var wire 32 % instF[31:0] $end
$var wire 32 ( instM[31:0] $end
$var wire 32 ) instW[31:0] $end
$var wire 64 + pcD[63:0] $end
$var wire 64 , pcE[63:0] $end
$var wire 64 * pcF[63:0] $end
$var wire 64 - pcM[63:0] $end
$var wire 64 . pcW[63:0] $end
$scope module Exe_stage $end
$var wire 64 / adder1[63:0] $end
$var wire 64 0 adder2[63:0] $end
$var wire 64 1 result[63:0] $end
$upscope $end
$scope module Regfile $end
$var wire 64 2 regs[1] [63:0] $end
$upscope $end
$upscope $end
$upscope $end
$upscope $end
$enddefinitions $end
#0
$dumpvars
b0 0
b0 ,
b0 1
b100000000000010010011 &
1"
b0 $
b0 )
b0 '
b0 2
b10000000000000000000000000000000 +
b0 /
b1000000000000010010011 %
b10000000000000000000000000000100 *
b0 #
b0 (
b0 -
b0 .
$end
#1
b1 1
b1 0
b10000000000000000000000000000000 ,
b1000000000000010010011 &
b100000000000010010011 '
b100001000000010010011 %
b10000000000000000000000000000100 +
b10000000000000000000000000001000 *
#2
b10000000000000000000000000001100 *
b100001000000010010011 &
b10 0
b10 1
b10000000000000000000000000000100 ,
b10000000000000000000000000001000 +
b1000000000000010010011 '
b10000000000000000000000000000000 -
b1101011 %
b100000000000010010011 (
#3
b1000000000000010010011 (
b11 1
b1101011 &
b10000000000000000000000000000000 .
b10000000000000000000000000010000 *
b1 0
b100000000000010010011 )
b0 %
b10000000000000000000000000001100 +
b10000000000000000000000000001000 ,
b10 /
b10000000000000000000000000000100 -
b100001000000010010011 '
#4
b1101011 '
b0 0
b0 &
b100001000000010010011 (
b1 2
b0 1
b10000000000000000000000000010100 *
b100000000000010010011 $
b10000000000000000000000000000100 .
b10000000000000000000000000001000 -
b10000000000000000000000000010000 +
b1000000000000010010011 )
b0 /
b10000000000000000000000000001100 ,
b10000000000000000000000000000000 #
#5
b10000000000000000000000000000100 #
b1000000000000010010011 $
b1101011 (
b0 '
b10000000000000000000000000011000 *
b10 2
b10000000000000000000000000010000 ,
b10000000000000000000000000001100 -
b10000000000000000000000000001000 .
b10000000000000000000000000010100 +
b100001000000010010011 )
#6
b1101011 )
b10000000000000000000000000011100 *
b100001000000010010011 $
b10000000000000000000000000001000 #
b0 (
b10000000000000000000000000011000 +
b10000000000000000000000000010100 ,
b11 2
b10000000000000000000000000001100 .
b10000000000000000000000000010000 -
#7
b10000000000000000000000000010100 -
b10000000000000000000000000001100 #
b10000000000000000000000000100000 *
b0 )
b1101011 $
b10000000000000000000000000010000 .
b10000000000000000000000000011100 +
b10000000000000000000000000011000 ,
#8
b10000000000000000000000000011100 ,
b10000000000000000000000000011000 -
b10000000000000000000000000100100 *
b10000000000000000000000000100000 +
b10000000000000000000000000010100 .
