Difftest_Platform/oscpu-framework/projects/zerocpu/build_test/top.vcd
$version Generated by VerilatedVcd $end
$date Sun Jun  5 23:50:20 2022 $end
$timescale 1ps $end

 $scope module TOP $end
  $var wire 64 l RamReadAddr [63:0] $end
  $var wire 64 h RamReadData [63:0] $end
  $var wire  1 j RamReadEnable $end
  $var wire 64 n RamWriteAddr [63:0] $end
  $var wire 64 r RamWriteData [63:0] $end
  $var wire  1 k RamWriteEnable $end
  $var wire 64 p RamWriteMask [63:0] $end
  $var wire  1 f clk $end
  $var wire  1 g rst $end
  $scope module zerocore $end
   $var wire 64 l RamReadAddr [63:0] $end
   $var wire 64 h RamReadData [63:0] $end
   $var wire  1 j RamReadEnable $end
   $var wire 64 n RamWriteAddr [63:0] $end
   $var wire 64 r RamWriteData [63:0] $end
   $var wire  1 k RamWriteEnable $end
   $var wire 64 p RamWriteMask [63:0] $end
   $var wire  1 )! aluBsrc $end
   $var wire  4 u aluCtl [3:0] $end
   $var wire  1 f clk $end
   $var wire 64 } imm [63:0] $end
   $var wire 32 t inst [31:0] $end
   $var wire 64 $ pc [63:0] $end
   $var wire 64 y ra [63:0] $end
   $var wire  5 v ra_addr [4:0] $end
   $var wire  1 )! ra_en $end
   $var wire 64 y ra_ex [63:0] $end
   $var wire 64 { rb [63:0] $end
   $var wire  5 w rb_addr [4:0] $end
   $var wire  1 )! rb_en $end
   $var wire 64 } rb_ex [63:0] $end
   $var wire  5 x rd_addr [4:0] $end
   $var wire  1 )! rd_en $end
   $var wire 64 !! res [63:0] $end
   $var wire  1 g rst $end
   $scope module u_ex $end
    $var wire  4 u aluCtl [3:0] $end
    $var wire 64 y ra [63:0] $end
    $var wire 64 } rb [63:0] $end
    $var wire 64 !! res [63:0] $end
   $upscope $end
   $scope module u_id $end
    $var wire  1 '! ADDI $end
    $var wire  1 )! aluBsrc $end
    $var wire  4 u aluCtl [3:0] $end
    $var wire  8 (! aluType [7:0] $end
    $var wire  3 $! funt3 [2:0] $end
    $var wire  1 &! funt3_000 $end
    $var wire 64 } imm [63:0] $end
    $var wire 32 t inst [31:0] $end
    $var wire  7 #! opcode [6:0] $end
    $var wire  1 %! opcode_001_0011 $end
    $var wire  5 v ra_addr [4:0] $end
    $var wire  1 )! ra_en $end
    $var wire  5 w rb_addr [4:0] $end
    $var wire  1 )! rb_en $end
    $var wire  5 x rd_addr [4:0] $end
    $var wire  1 )! rd_en $end
   $upscope $end
   $scope module u_if $end
    $var wire  1 f clk $end
    $var wire 64 $ pc [63:0] $end
    $var wire  1 g rst $end
   $upscope $end
   $scope module u_regs $end
    $var wire 64 y Ra [63:0] $end
    $var wire  5 v Ra_addr [4:0] $end
    $var wire  1 )! Ra_en $end
    $var wire 64 { Rb [63:0] $end
    $var wire  5 w Rb_addr [4:0] $end
    $var wire  1 )! Rb_en $end
    $var wire 64 !! Rw [63:0] $end
    $var wire  5 x Rw_addr [4:0] $end
    $var wire  1 )! Rw_en $end
    $var wire  1 f clk $end
    $var wire 32 # i [31:0] $end
    $var wire 64 & regsheap[0] [63:0] $end
    $var wire 64 : regsheap[10] [63:0] $end
    $var wire 64 < regsheap[11] [63:0] $end
    $var wire 64 > regsheap[12] [63:0] $end
    $var wire 64 @ regsheap[13] [63:0] $end
    $var wire 64 B regsheap[14] [63:0] $end
    $var wire 64 D regsheap[15] [63:0] $end
    $var wire 64 F regsheap[16] [63:0] $end
    $var wire 64 H regsheap[17] [63:0] $end
    $var wire 64 J regsheap[18] [63:0] $end
    $var wire 64 L regsheap[19] [63:0] $end
    $var wire 64 ( regsheap[1] [63:0] $end
    $var wire 64 N regsheap[20] [63:0] $end
    $var wire 64 P regsheap[21] [63:0] $end
    $var wire 64 R regsheap[22] [63:0] $end
    $var wire 64 T regsheap[23] [63:0] $end
    $var wire 64 V regsheap[24] [63:0] $end
    $var wire 64 X regsheap[25] [63:0] $end
    $var wire 64 Z regsheap[26] [63:0] $end
    $var wire 64 \ regsheap[27] [63:0] $end
    $var wire 64 ^ regsheap[28] [63:0] $end
    $var wire 64 ` regsheap[29] [63:0] $end
    $var wire 64 * regsheap[2] [63:0] $end
    $var wire 64 b regsheap[30] [63:0] $end
    $var wire 64 d regsheap[31] [63:0] $end
    $var wire 64 , regsheap[3] [63:0] $end
    $var wire 64 . regsheap[4] [63:0] $end
    $var wire 64 0 regsheap[5] [63:0] $end
    $var wire 64 2 regsheap[6] [63:0] $end
    $var wire 64 4 regsheap[7] [63:0] $end
    $var wire 64 6 regsheap[8] [63:0] $end
    $var wire 64 8 regsheap[9] [63:0] $end
    $var wire  1 g rst $end
   $upscope $end
  $upscope $end
 $upscope $end
$enddefinitions $end


#0
b00000000000000000000000000100000 #
b0000000000000000000000000000000000000000000000000000000000000000 $
b0000000000000000000000000000000000000000000000000000000000000000 &
b0000000000000000000000000000000000000000000000000000000000000000 (
b0000000000000000000000000000000000000000000000000000000000000000 *
b0000000000000000000000000000000000000000000000000000000000000000 ,
b0000000000000000000000000000000000000000000000000000000000000000 .
b0000000000000000000000000000000000000000000000000000000000000000 0
b0000000000000000000000000000000000000000000000000000000000000000 2
b0000000000000000000000000000000000000000000000000000000000000000 4
b0000000000000000000000000000000000000000000000000000000000000000 6
b0000000000000000000000000000000000000000000000000000000000000000 8
b0000000000000000000000000000000000000000000000000000000000000000 :
b0000000000000000000000000000000000000000000000000000000000000000 <
b0000000000000000000000000000000000000000000000000000000000000000 >
b0000000000000000000000000000000000000000000000000000000000000000 @
b0000000000000000000000000000000000000000000000000000000000000000 B
b0000000000000000000000000000000000000000000000000000000000000000 D
b0000000000000000000000000000000000000000000000000000000000000000 F
b0000000000000000000000000000000000000000000000000000000000000000 H
b0000000000000000000000000000000000000000000000000000000000000000 J
b0000000000000000000000000000000000000000000000000000000000000000 L
b0000000000000000000000000000000000000000000000000000000000000000 N
b0000000000000000000000000000000000000000000000000000000000000000 P
b0000000000000000000000000000000000000000000000000000000000000000 R
b0000000000000000000000000000000000000000000000000000000000000000 T
b0000000000000000000000000000000000000000000000000000000000000000 V
b0000000000000000000000000000000000000000000000000000000000000000 X
b0000000000000000000000000000000000000000000000000000000000000000 Z
b0000000000000000000000000000000000000000000000000000000000000000 \
b0000000000000000000000000000000000000000000000000000000000000000 ^
b0000000000000000000000000000000000000000000000000000000000000000 `
b0000000000000000000000000000000000000000000000000000000000000000 b
b0000000000000000000000000000000000000000000000000000000000000000 d
0f
1g
b0000000000000000000000000000000000000000000000000000000000000000 h
1j
0k
b0000000000000000000000000000000000000000000000000000000000000000 l
b0000000000000000000000000000000000000000000000000000000000000000 n
b0000000000000000000000000000000000000000000000000000000000000000 p
b0000000000000000000000000000000000000000000000000000000000000000 r
b00000000000000000000000000000000 t
b0000 u
b00000 v
b00000 w
b00000 x
b0000000000000000000000000000000000000000000000000000000000000000 y
b0000000000000000000000000000000000000000000000000000000000000000 {
b0000000000000000000000000000000000000000000000000000000000000000 }
b0000000000000000000000000000000000000000000000000000000000000000 !!
b0000000 #!
b000 $!
0%!
1&!
0'!
b00000000 (!
1)!
#1
#2
#3
#4
#5
1f
#6
#7
#8
#9
#10
0f
b0000000000100000000000001001001100000000000100000000000010010011 h
b00000000000100000000000010010011 t
b00001 w
b00001 x
b0000000000000000000000000000000000000000000000000000000000000001 }
b0000000000000000000000000000000000000000000000000000000000000001 !!
b0010011 #!
1%!
1'!
b00000001 (!
#11
#12
#13
#14
#15
b0000000000000000000000000000000000000000000000000000000000000100 $
b0000000000000000000000000000000000000000000000000000000000000001 (
1f
0g
b0000000000000000000000000000000000000000000000000000000000000100 l
b0000000000000000000000000000000000000000000000000000000000000001 {
#16
#17
#18
#19
#20
0f
b0000000000000000000000000000000000000000000000000000000000000000 h
b00000000000000000000000000000000 t
b00000 w
b00000 x
b0000000000000000000000000000000000000000000000000000000000000000 {
b0000000000000000000000000000000000000000000000000000000000000000 }
b0000000000000000000000000000000000000000000000000000000000000000 !!
b0000000 #!
0%!
0'!
b00000000 (!
#21
#22
#23
#24
#25
b0000000000000000000000000000000000000000000000000000000000001000 $
1f
b0000000000000000000000000000000000000000000000000000000000001000 l
#26
#27
#28
#29
#30
0f
#31
#32
#33
#34
#35
b0000000000000000000000000000000000000000000000000000000000001100 $
1f
b0000000000000000000000000000000000000000000000000000000000001100 l
#36
#37
#38
#39
#40
0f
#41
#42
#43
#44
#45
b0000000000000000000000000000000000000000000000000000000000010000 $
1f
b0000000000000000000000000000000000000000000000000000000000010000 l
#46
#47
#48
#49
#50
0f
#51
#52
#53
#54
#55
b0000000000000000000000000000000000000000000000000000000000010100 $
1f
b0000000000000000000000000000000000000000000000000000000000010100 l
#56
#57
#58
#59
#60
0f
#61
#62
#63
#64
#65
b0000000000000000000000000000000000000000000000000000000000011000 $
1f
b0000000000000000000000000000000000000000000000000000000000011000 l
#66
#67
#68
#69
#70
0f
#71
#72
#73
#74
#75
b0000000000000000000000000000000000000000000000000000000000011100 $
1f
b0000000000000000000000000000000000000000000000000000000000011100 l
#76
#77
#78
#79
#80
0f
#81
#82
#83
#84
#85
b0000000000000000000000000000000000000000000000000000000000100000 $
1f
b0000000000000000000000000000000000000000000000000000000000100000 l
#86
#87
#88
#89
#90
0f
#91
#92
#93
#94
#95
b0000000000000000000000000000000000000000000000000000000000100100 $
1f
b0000000000000000000000000000000000000000000000000000000000100100 l
#96
#97
#98
#99
#100
0f
#101
#102
#103
#104
#105
b0000000000000000000000000000000000000000000000000000000000101000 $
1f
b0000000000000000000000000000000000000000000000000000000000101000 l
#106
#107
#108
#109
#110
0f
#111
#112
#113
#114
#115
b0000000000000000000000000000000000000000000000000000000000101100 $
1f
b0000000000000000000000000000000000000000000000000000000000101100 l
#116
#117
#118
#119
#120
0f
#121
#122
#123
#124
#125
b0000000000000000000000000000000000000000000000000000000000110000 $
1f
b0000000000000000000000000000000000000000000000000000000000110000 l
#126
#127
#128
#129
#130
0f
#131
#132
#133
#134
#135
b0000000000000000000000000000000000000000000000000000000000110100 $
1f
b0000000000000000000000000000000000000000000000000000000000110100 l
#136
#137
#138
#139
#140
0f
#141
#142
#143
#144
#145
b0000000000000000000000000000000000000000000000000000000000111000 $
1f
b0000000000000000000000000000000000000000000000000000000000111000 l
#146
#147
#148
#149
#150
0f
#151
#152
#153
#154
#155
b0000000000000000000000000000000000000000000000000000000000111100 $
1f
b0000000000000000000000000000000000000000000000000000000000111100 l
#156
#157
#158
#159
#160
0f
#161
#162
#163
#164
#165
b0000000000000000000000000000000000000000000000000000000001000000 $
1f
b0000000000000000000000000000000000000000000000000000000001000000 l
#166
#167
#168
#169
#170
0f
#171
#172
#173
#174
#175
b0000000000000000000000000000000000000000000000000000000001000100 $
1f
b0000000000000000000000000000000000000000000000000000000001000100 l
#176
#177
#178
#179
#180
0f
#181
#182
#183
#184
#185
b0000000000000000000000000000000000000000000000000000000001001000 $
1f
b0000000000000000000000000000000000000000000000000000000001001000 l
#186
#187
#188
#189
#190
0f
#191
#192
#193
#194
#195
b0000000000000000000000000000000000000000000000000000000001001100 $
1f
b0000000000000000000000000000000000000000000000000000000001001100 l
#196
#197
#198
#199
#200
0f
#201
#202
#203
#204
#205
b0000000000000000000000000000000000000000000000000000000001010000 $
1f
b0000000000000000000000000000000000000000000000000000000001010000 l
#206
#207
#208
#209
#210
0f
#211
#212
#213
#214
#215
b0000000000000000000000000000000000000000000000000000000001010100 $
1f
b0000000000000000000000000000000000000000000000000000000001010100 l
#216
#217
#218
#219
#220
0f
#221
#222
#223
#224
#225
b0000000000000000000000000000000000000000000000000000000001011000 $
1f
b0000000000000000000000000000000000000000000000000000000001011000 l
#226
#227
#228
#229
#230
0f
#231
#232
#233
#234
#235
b0000000000000000000000000000000000000000000000000000000001011100 $
1f
b0000000000000000000000000000000000000000000000000000000001011100 l
#236
#237
#238
#239
#240
0f
#241
#242
#243
#244
#245
b0000000000000000000000000000000000000000000000000000000001100000 $
1f
b0000000000000000000000000000000000000000000000000000000001100000 l
#246
#247
#248
#249
#250
0f
#251
#252
#253
#254
#255
b0000000000000000000000000000000000000000000000000000000001100100 $
1f
b0000000000000000000000000000000000000000000000000000000001100100 l
#256
#257
#258
#259
#260
0f
#261
#262
#263
#264
#265
b0000000000000000000000000000000000000000000000000000000001101000 $
1f
b0000000000000000000000000000000000000000000000000000000001101000 l
#266
#267
#268
#269
#270
0f
#271
#272
#273
#274
#275
b0000000000000000000000000000000000000000000000000000000001101100 $
1f
b0000000000000000000000000000000000000000000000000000000001101100 l
#276
#277
#278
#279
#280
0f
#281
#282
#283
#284
#285
b0000000000000000000000000000000000000000000000000000000001110000 $
1f
b0000000000000000000000000000000000000000000000000000000001110000 l
#286
#287
#288
#289
#290
0f
#291
#292
#293
#294
#295
b0000000000000000000000000000000000000000000000000000000001110100 $
1f
b0000000000000000000000000000000000000000000000000000000001110100 l
#296
#297
#298
#299
#300
0f
#301
#302
#303
#304
#305
b0000000000000000000000000000000000000000000000000000000001111000 $
1f
b0000000000000000000000000000000000000000000000000000000001111000 l
#306
#307
#308
#309
#310
0f
#311
#312
#313
#314
#315
b0000000000000000000000000000000000000000000000000000000001111100 $
1f
b0000000000000000000000000000000000000000000000000000000001111100 l
#316
#317
#318
#319
#320
0f
#321
#322
#323
#324
#325
b0000000000000000000000000000000000000000000000000000000010000000 $
1f
b0000000000000000000000000000000000000000000000000000000010000000 l
#326
#327
#328
#329
#330
0f
#331
#332
#333
#334
#335
b0000000000000000000000000000000000000000000000000000000010000100 $
1f
b0000000000000000000000000000000000000000000000000000000010000100 l
#336
#337
#338
#339
#340
0f
#341
#342
#343
#344
#345
b0000000000000000000000000000000000000000000000000000000010001000 $
1f
b0000000000000000000000000000000000000000000000000000000010001000 l
#346
#347
#348
#349
#350
0f
#351
#352
#353
#354
#355
b0000000000000000000000000000000000000000000000000000000010001100 $
1f
b0000000000000000000000000000000000000000000000000000000010001100 l
#356
#357
#358
#359
#360
0f
#361
#362
#363
#364
#365
b0000000000000000000000000000000000000000000000000000000010010000 $
1f
b0000000000000000000000000000000000000000000000000000000010010000 l
#366
#367
#368
#369
#370
0f
#371
#372
#373
#374
#375
b0000000000000000000000000000000000000000000000000000000010010100 $
1f
b0000000000000000000000000000000000000000000000000000000010010100 l
#376
#377
#378
#379
#380
0f
#381
#382
#383
#384
#385
b0000000000000000000000000000000000000000000000000000000010011000 $
1f
b0000000000000000000000000000000000000000000000000000000010011000 l
#386
#387
#388
#389
#390
0f
#391
#392
#393
#394
#395
b0000000000000000000000000000000000000000000000000000000010011100 $
1f
b0000000000000000000000000000000000000000000000000000000010011100 l
#396
#397
#398
#399
#400
0f
#401
#402
#403
#404
#405
b0000000000000000000000000000000000000000000000000000000010100000 $
1f
b0000000000000000000000000000000000000000000000000000000010100000 l
#406
#407
#408
#409
#410
0f
#411
#412
#413
#414
#415
b0000000000000000000000000000000000000000000000000000000010100100 $
1f
b0000000000000000000000000000000000000000000000000000000010100100 l
#416
#417
#418
#419
#420
0f
#421
#422
#423
#424
#425
b0000000000000000000000000000000000000000000000000000000010101000 $
1f
b0000000000000000000000000000000000000000000000000000000010101000 l
#426
#427
#428
#429
#430
0f
#431
#432
#433
#434
#435
b0000000000000000000000000000000000000000000000000000000010101100 $
1f
b0000000000000000000000000000000000000000000000000000000010101100 l
#436
#437
#438
#439
#440
0f
#441
#442
#443
#444
#445
b0000000000000000000000000000000000000000000000000000000010110000 $
1f
b0000000000000000000000000000000000000000000000000000000010110000 l
#446
#447
#448
#449
#450
0f
#451
#452
#453
#454
#455
b0000000000000000000000000000000000000000000000000000000010110100 $
1f
b0000000000000000000000000000000000000000000000000000000010110100 l
#456
#457
#458
#459
#460
0f
#461
#462
#463
#464
#465
b0000000000000000000000000000000000000000000000000000000010111000 $
1f
b0000000000000000000000000000000000000000000000000000000010111000 l
#466
#467
#468
#469
#470
0f
#471
#472
#473
#474
#475
b0000000000000000000000000000000000000000000000000000000010111100 $
1f
b0000000000000000000000000000000000000000000000000000000010111100 l
#476
#477
#478
#479
#480
0f
#481
#482
#483
#484
#485
b0000000000000000000000000000000000000000000000000000000011000000 $
1f
b0000000000000000000000000000000000000000000000000000000011000000 l
#486
#487
#488
#489
#490
0f
#491
#492
#493
#494
#495
b0000000000000000000000000000000000000000000000000000000011000100 $
1f
b0000000000000000000000000000000000000000000000000000000011000100 l
#496
#497
#498
#499
#500
0f
#501
#502
#503
#504
#505
b0000000000000000000000000000000000000000000000000000000011001000 $
1f
b0000000000000000000000000000000000000000000000000000000011001000 l
#506
#507
#508
#509
#510
0f
#511
#512
#513
#514
#515
b0000000000000000000000000000000000000000000000000000000011001100 $
1f
b0000000000000000000000000000000000000000000000000000000011001100 l
#516
#517
#518
#519
#520
0f
#521
#522
#523
#524
#525
b0000000000000000000000000000000000000000000000000000000011010000 $
1f
b0000000000000000000000000000000000000000000000000000000011010000 l
#526
#527
#528
#529
#530
0f
#531
#532
#533
#534
#535
b0000000000000000000000000000000000000000000000000000000011010100 $
1f
b0000000000000000000000000000000000000000000000000000000011010100 l
#536
#537
#538
#539
#540
0f
#541
#542
#543
#544
#545
b0000000000000000000000000000000000000000000000000000000011011000 $
1f
b0000000000000000000000000000000000000000000000000000000011011000 l
#546
#547
#548
#549
#550
0f
#551
#552
#553
#554
#555
b0000000000000000000000000000000000000000000000000000000011011100 $
1f
b0000000000000000000000000000000000000000000000000000000011011100 l
#556
#557
#558
#559
#560
0f
#561
#562
#563
#564
#565
b0000000000000000000000000000000000000000000000000000000011100000 $
1f
b0000000000000000000000000000000000000000000000000000000011100000 l
#566
#567
#568
#569
#570
0f
#571
#572
#573
#574
#575
b0000000000000000000000000000000000000000000000000000000011100100 $
1f
b0000000000000000000000000000000000000000000000000000000011100100 l
#576
#577
#578
#579
#580
0f
#581
#582
#583
#584
#585
b0000000000000000000000000000000000000000000000000000000011101000 $
1f
b0000000000000000000000000000000000000000000000000000000011101000 l
#586
#587
#588
#589
#590
0f
#591
#592
#593
#594
#595
b0000000000000000000000000000000000000000000000000000000011101100 $
1f
b0000000000000000000000000000000000000000000000000000000011101100 l
#596
#597
#598
#599
#600
0f
#601
#602
#603
#604
#605
b0000000000000000000000000000000000000000000000000000000011110000 $
1f
b0000000000000000000000000000000000000000000000000000000011110000 l
#606
#607
#608
#609
#610
0f
#611
#612
#613
#614
#615
b0000000000000000000000000000000000000000000000000000000011110100 $
1f
b0000000000000000000000000000000000000000000000000000000011110100 l
#616
#617
#618
#619
#620
0f
#621
#622
#623
#624
#625
b0000000000000000000000000000000000000000000000000000000011111000 $
1f
b0000000000000000000000000000000000000000000000000000000011111000 l
#626
#627
#628
#629
#630
0f
#631
#632
#633
#634
#635
b0000000000000000000000000000000000000000000000000000000011111100 $
1f
b0000000000000000000000000000000000000000000000000000000011111100 l
#636
#637
#638
#639
#640
0f
#641
#642
#643
#644
#645
b0000000000000000000000000000000000000000000000000000000100000000 $
1f
b0000000000000000000000000000000000000000000000000000000100000000 l
#646
#647
#648
#649
#650
0f
#651
#652
#653
#654
#655
b0000000000000000000000000000000000000000000000000000000100000100 $
1f
b0000000000000000000000000000000000000000000000000000000100000100 l
#656
#657
#658
#659
#660
0f
#661
#662
#663
#664
#665
b0000000000000000000000000000000000000000000000000000000100001000 $
1f
b0000000000000000000000000000000000000000000000000000000100001000 l
#666
#667
#668
#669
#670
0f
#671
#672
#673
#674
#675
b0000000000000000000000000000000000000000000000000000000100001100 $
1f
b0000000000000000000000000000000000000000000000000000000100001100 l
#676
#677
#678
#679
#680
0f
#681
#682
#683
#684
#685
b0000000000000000000000000000000000000000000000000000000100010000 $
1f
b0000000000000000000000000000000000000000000000000000000100010000 l
#686
#687
#688
#689
#690
0f
#691
#692
#693
#694
#695
b0000000000000000000000000000000000000000000000000000000100010100 $
1f
b0000000000000000000000000000000000000000000000000000000100010100 l
#696
#697
#698
#699
#700
0f
#701
#702
#703
#704
#705
b0000000000000000000000000000000000000000000000000000000100011000 $
1f
b0000000000000000000000000000000000000000000000000000000100011000 l
#706
#707
#708
#709
#710
0f
#711
#712
#713
#714
#715
b0000000000000000000000000000000000000000000000000000000100011100 $
1f
b0000000000000000000000000000000000000000000000000000000100011100 l
#716
#717
#718
#719
#720
0f
#721
#722
#723
#724
#725
b0000000000000000000000000000000000000000000000000000000100100000 $
1f
b0000000000000000000000000000000000000000000000000000000100100000 l
#726
#727
#728
#729
#730
0f
#731
#732
#733
#734
#735
b0000000000000000000000000000000000000000000000000000000100100100 $
1f
b0000000000000000000000000000000000000000000000000000000100100100 l
#736
#737
#738
#739
#740
0f
#741
#742
#743
#744
#745
b0000000000000000000000000000000000000000000000000000000100101000 $
1f
b0000000000000000000000000000000000000000000000000000000100101000 l
#746
#747
#748
#749
#750
0f
#751
#752
#753
#754
#755
b0000000000000000000000000000000000000000000000000000000100101100 $
1f
b0000000000000000000000000000000000000000000000000000000100101100 l
#756
#757
#758
#759
#760
0f
#761
#762
#763
#764
#765
b0000000000000000000000000000000000000000000000000000000100110000 $
1f
b0000000000000000000000000000000000000000000000000000000100110000 l
#766
#767
#768
#769
#770
0f
#771
#772
#773
#774
#775
b0000000000000000000000000000000000000000000000000000000100110100 $
1f
b0000000000000000000000000000000000000000000000000000000100110100 l
#776
#777
#778
#779
#780
0f
#781
#782
#783
#784
#785
b0000000000000000000000000000000000000000000000000000000100111000 $
1f
b0000000000000000000000000000000000000000000000000000000100111000 l
#786
#787
#788
#789
#790
0f
#791
#792
#793
#794
#795
b0000000000000000000000000000000000000000000000000000000100111100 $
1f
b0000000000000000000000000000000000000000000000000000000100111100 l
#796
#797
#798
#799
#800
0f
#801
#802
#803
#804
#805
b0000000000000000000000000000000000000000000000000000000101000000 $
1f
b0000000000000000000000000000000000000000000000000000000101000000 l
#806
#807
#808
#809
#810
0f
#811
#812
#813
#814
#815
b0000000000000000000000000000000000000000000000000000000101000100 $
1f
b0000000000000000000000000000000000000000000000000000000101000100 l
#816
#817
#818
#819
#820
0f
#821
#822
#823
#824
#825
b0000000000000000000000000000000000000000000000000000000101001000 $
1f
b0000000000000000000000000000000000000000000000000000000101001000 l
#826
#827
#828
#829
#830
0f
#831
#832
#833
#834
#835
b0000000000000000000000000000000000000000000000000000000101001100 $
1f
b0000000000000000000000000000000000000000000000000000000101001100 l
#836
#837
#838
#839
#840
0f
#841
#842
#843
#844
#845
b0000000000000000000000000000000000000000000000000000000101010000 $
1f
b0000000000000000000000000000000000000000000000000000000101010000 l
#846
#847
#848
#849
#850
0f
#851
#852
#853
#854
#855
b0000000000000000000000000000000000000000000000000000000101010100 $
1f
b0000000000000000000000000000000000000000000000000000000101010100 l
#856
#857
#858
#859
#860
0f
#861
#862
#863
#864
#865
b0000000000000000000000000000000000000000000000000000000101011000 $
1f
b0000000000000000000000000000000000000000000000000000000101011000 l
#866
#867
#868
#869
#870
0f
#871
#872
#873
#874
#875
b0000000000000000000000000000000000000000000000000000000101011100 $
1f
b0000000000000000000000000000000000000000000000000000000101011100 l
#876
#877
#878
#879
#880
0f
#881
#882
#883
#884
#885
b0000000000000000000000000000000000000000000000000000000101100000 $
1f
b0000000000000000000000000000000000000000000000000000000101100000 l
#886
#887
#888
#889
#890
0f
#891
#892
#893
#894
#895
b0000000000000000000000000000000000000000000000000000000101100100 $
1f
b0000000000000000000000000000000000000000000000000000000101100100 l
#896
#897
#898
#899
#900
0f
#901
#902
#903
#904
#905
b0000000000000000000000000000000000000000000000000000000101101000 $
1f
b0000000000000000000000000000000000000000000000000000000101101000 l
#906
#907
#908
#909
#910
0f
#911
#912
#913
#914
#915
b0000000000000000000000000000000000000000000000000000000101101100 $
1f
b0000000000000000000000000000000000000000000000000000000101101100 l
#916
#917
#918
#919
#920
0f
#921
#922
#923
#924
#925
b0000000000000000000000000000000000000000000000000000000101110000 $
1f
b0000000000000000000000000000000000000000000000000000000101110000 l
#926
#927
#928
#929
#930
0f
#931
#932
#933
#934
#935
b0000000000000000000000000000000000000000000000000000000101110100 $
1f
b0000000000000000000000000000000000000000000000000000000101110100 l
#936
#937
#938
#939
#940
0f
#941
#942
#943
#944
#945
b0000000000000000000000000000000000000000000000000000000101111000 $
1f
b0000000000000000000000000000000000000000000000000000000101111000 l
#946
#947
#948
#949
#950
0f
#951
#952
#953
#954
#955
b0000000000000000000000000000000000000000000000000000000101111100 $
1f
b0000000000000000000000000000000000000000000000000000000101111100 l
#956
#957
#958
#959
#960
0f
#961
#962
#963
#964
#965
b0000000000000000000000000000000000000000000000000000000110000000 $
1f
b0000000000000000000000000000000000000000000000000000000110000000 l
#966
#967
#968
#969
#970
0f
#971
#972
#973
#974
#975
b0000000000000000000000000000000000000000000000000000000110000100 $
1f
b0000000000000000000000000000000000000000000000000000000110000100 l
#976
#977
#978
#979
#980
0f
#981
#982
#983
#984
#985
b0000000000000000000000000000000000000000000000000000000110001000 $
1f
b0000000000000000000000000000000000000000000000000000000110001000 l
#986
#987
#988
#989
#990
0f
#991
#992
#993
#994
#995
b0000000000000000000000000000000000000000000000000000000110001100 $
1f
b0000000000000000000000000000000000000000000000000000000110001100 l
#996
#997
#998
#999
#1000
0f
#1001
#1002
#1003
#1004
#1005
b0000000000000000000000000000000000000000000000000000000110010000 $
1f
b0000000000000000000000000000000000000000000000000000000110010000 l
#1006
#1007
#1008
#1009
#1010
0f
#1011
#1012
#1013
#1014
#1015
b0000000000000000000000000000000000000000000000000000000110010100 $
1f
b0000000000000000000000000000000000000000000000000000000110010100 l
#1016
#1017
#1018
#1019
#1020
0f
#1021
#1022
#1023
#1024
#1025
b0000000000000000000000000000000000000000000000000000000110011000 $
1f
b0000000000000000000000000000000000000000000000000000000110011000 l
#1026
#1027
#1028
#1029
#1030
0f
#1031
#1032
#1033
#1034
#1035
b0000000000000000000000000000000000000000000000000000000110011100 $
1f
b0000000000000000000000000000000000000000000000000000000110011100 l
#1036
#1037
#1038
#1039
#1040
0f
#1041
#1042
#1043
#1044
#1045
b0000000000000000000000000000000000000000000000000000000110100000 $
1f
b0000000000000000000000000000000000000000000000000000000110100000 l
#1046
#1047
#1048
#1049
#1050
0f
#1051
#1052
#1053
#1054
#1055
b0000000000000000000000000000000000000000000000000000000110100100 $
1f
b0000000000000000000000000000000000000000000000000000000110100100 l
#1056
#1057
#1058
#1059
#1060
0f
#1061
#1062
#1063
#1064
#1065
b0000000000000000000000000000000000000000000000000000000110101000 $
1f
b0000000000000000000000000000000000000000000000000000000110101000 l
#1066
#1067
#1068
#1069
#1070
0f
#1071
#1072
#1073
#1074
#1075
b0000000000000000000000000000000000000000000000000000000110101100 $
1f
b0000000000000000000000000000000000000000000000000000000110101100 l
#1076
#1077
#1078
#1079
#1080
0f
#1081
#1082
#1083
#1084
#1085
b0000000000000000000000000000000000000000000000000000000110110000 $
1f
b0000000000000000000000000000000000000000000000000000000110110000 l
#1086
#1087
#1088
#1089
#1090
0f
#1091
#1092
#1093
#1094
#1095
b0000000000000000000000000000000000000000000000000000000110110100 $
1f
b0000000000000000000000000000000000000000000000000000000110110100 l
#1096
#1097
#1098
#1099
#1100
0f
#1101
#1102
#1103
#1104
#1105
b0000000000000000000000000000000000000000000000000000000110111000 $
1f
b0000000000000000000000000000000000000000000000000000000110111000 l
#1106
#1107
#1108
#1109
#1110
0f
#1111
#1112
#1113
#1114
#1115
b0000000000000000000000000000000000000000000000000000000110111100 $
1f
b0000000000000000000000000000000000000000000000000000000110111100 l
#1116
#1117
#1118
#1119
#1120
0f
#1121
#1122
#1123
#1124
#1125
b0000000000000000000000000000000000000000000000000000000111000000 $
1f
b0000000000000000000000000000000000000000000000000000000111000000 l
#1126
#1127
#1128
#1129
#1130
0f
#1131
#1132
#1133
#1134
#1135
b0000000000000000000000000000000000000000000000000000000111000100 $
1f
b0000000000000000000000000000000000000000000000000000000111000100 l
#1136
#1137
#1138
#1139
#1140
0f
#1141
#1142
#1143
#1144
#1145
b0000000000000000000000000000000000000000000000000000000111001000 $
1f
b0000000000000000000000000000000000000000000000000000000111001000 l
#1146
#1147
#1148
#1149
#1150
0f
#1151
#1152
#1153
#1154
#1155
b0000000000000000000000000000000000000000000000000000000111001100 $
1f
b0000000000000000000000000000000000000000000000000000000111001100 l
#1156
#1157
#1158
#1159
#1160
0f
#1161
#1162
#1163
#1164
#1165
b0000000000000000000000000000000000000000000000000000000111010000 $
1f
b0000000000000000000000000000000000000000000000000000000111010000 l
#1166
#1167
#1168
#1169
#1170
0f
#1171
#1172
#1173
#1174
#1175
b0000000000000000000000000000000000000000000000000000000111010100 $
1f
b0000000000000000000000000000000000000000000000000000000111010100 l
#1176
#1177
#1178
#1179
#1180
0f
#1181
#1182
#1183
#1184
#1185
b0000000000000000000000000000000000000000000000000000000111011000 $
1f
b0000000000000000000000000000000000000000000000000000000111011000 l
#1186
#1187
#1188
#1189
#1190
0f
#1191
#1192
#1193
#1194
#1195
b0000000000000000000000000000000000000000000000000000000111011100 $
1f
b0000000000000000000000000000000000000000000000000000000111011100 l
#1196
#1197
#1198
#1199
#1200
0f
#1201
#1202
#1203
#1204
#1205
b0000000000000000000000000000000000000000000000000000000111100000 $
1f
b0000000000000000000000000000000000000000000000000000000111100000 l
#1206
#1207
#1208
#1209
#1210
0f
#1211
#1212
#1213
#1214
#1215
b0000000000000000000000000000000000000000000000000000000111100100 $
1f
b0000000000000000000000000000000000000000000000000000000111100100 l
#1216
#1217
#1218
#1219
#1220
0f
#1221
#1222
#1223
#1224
#1225
b0000000000000000000000000000000000000000000000000000000111101000 $
1f
b0000000000000000000000000000000000000000000000000000000111101000 l
#1226
#1227
#1228
#1229
#1230
0f
#1231
#1232
#1233
#1234
#1235
b0000000000000000000000000000000000000000000000000000000111101100 $
1f
b0000000000000000000000000000000000000000000000000000000111101100 l
#1236
#1237
#1238
#1239
