Difftest_Platform/oscpu-framework/projects/zerocpu/build_test/top.vcd
$version Generated by VerilatedVcd $end
$date Mon Jun  6 15:01:24 2022 $end
$timescale 1ps $end

 $scope module TOP $end
  $var wire 64 q RamReadAddr [63:0] $end
  $var wire 64 m RamReadData [63:0] $end
  $var wire  1 o RamReadEnable $end
  $var wire 64 s RamWriteAddr [63:0] $end
  $var wire 64 w RamWriteData [63:0] $end
  $var wire  1 p RamWriteEnable $end
  $var wire 64 u RamWriteMask [63:0] $end
  $var wire  1 k clk $end
  $var wire  1 l rst $end
  $scope module zerocore $end
   $var wire 64 q RamReadAddr [63:0] $end
   $var wire 64 m RamReadData [63:0] $end
   $var wire  1 o RamReadEnable $end
   $var wire 64 s RamWriteAddr [63:0] $end
   $var wire 64 w RamWriteData [63:0] $end
   $var wire  1 p RamWriteEnable $end
   $var wire 64 u RamWriteMask [63:0] $end
   $var wire  1 )! aluBsrc $end
   $var wire  4 $ aluCtl [3:0] $end
   $var wire  1 k clk $end
   $var wire 64 !! imm [63:0] $end
   $var wire 64 % ina [63:0] $end
   $var wire 64 !! inb [63:0] $end
   $var wire 32 y inst [31:0] $end
   $var wire 64 ) pc [63:0] $end
   $var wire 64 *! ra [63:0] $end
   $var wire  5 z ra_addr [4:0] $end
   $var wire  1 )! ra_en $end
   $var wire 64 } rb [63:0] $end
   $var wire  5 { rb_addr [4:0] $end
   $var wire  1 )! rb_en $end
   $var wire  5 | rd_addr [4:0] $end
   $var wire  1 )! rd_en $end
   $var wire 64 ' res [63:0] $end
   $var wire  1 l rst $end
   $var wire 64 ,! rw [63:0] $end
   $scope module u_ex $end
    $var wire  4 $ aluCtl [3:0] $end
    $var wire 64 % ina [63:0] $end
    $var wire 64 !! inb [63:0] $end
    $var wire 64 ' res [63:0] $end
   $upscope $end
   $scope module u_id $end
    $var wire  1 '! ADDI $end
    $var wire  1 )! aluBsrc $end
    $var wire  4 $ aluCtl [3:0] $end
    $var wire  8 (! aluType [7:0] $end
    $var wire  3 $! funt3 [2:0] $end
    $var wire  1 &! funt3_000 $end
    $var wire 64 !! imm [63:0] $end
    $var wire 32 y inst [31:0] $end
    $var wire  7 #! opcode [6:0] $end
    $var wire  1 %! opcode_001_0011 $end
    $var wire  5 z ra_addr [4:0] $end
    $var wire  1 )! ra_en $end
    $var wire  5 { rb_addr [4:0] $end
    $var wire  1 )! rb_en $end
    $var wire  5 | rd_addr [4:0] $end
    $var wire  1 )! rd_en $end
   $upscope $end
   $scope module u_if $end
    $var wire  1 k clk $end
    $var wire 64 ) pc [63:0] $end
    $var wire  1 l rst $end
   $upscope $end
   $scope module u_regs $end
    $var wire 64 % Ra [63:0] $end
    $var wire  5 z Ra_addr [4:0] $end
    $var wire  1 )! Ra_en $end
    $var wire 64 } Rb [63:0] $end
    $var wire  5 { Rb_addr [4:0] $end
    $var wire  1 )! Rb_en $end
    $var wire 64 ,! Rw [63:0] $end
    $var wire  5 | Rw_addr [4:0] $end
    $var wire  1 )! Rw_en $end
    $var wire  1 k clk $end
    $var wire 32 # i [31:0] $end
    $var wire 64 + regsheap[0] [63:0] $end
    $var wire 64 ? regsheap[10] [63:0] $end
    $var wire 64 A regsheap[11] [63:0] $end
    $var wire 64 C regsheap[12] [63:0] $end
    $var wire 64 E regsheap[13] [63:0] $end
    $var wire 64 G regsheap[14] [63:0] $end
    $var wire 64 I regsheap[15] [63:0] $end
    $var wire 64 K regsheap[16] [63:0] $end
    $var wire 64 M regsheap[17] [63:0] $end
    $var wire 64 O regsheap[18] [63:0] $end
    $var wire 64 Q regsheap[19] [63:0] $end
    $var wire 64 - regsheap[1] [63:0] $end
    $var wire 64 S regsheap[20] [63:0] $end
    $var wire 64 U regsheap[21] [63:0] $end
    $var wire 64 W regsheap[22] [63:0] $end
    $var wire 64 Y regsheap[23] [63:0] $end
    $var wire 64 [ regsheap[24] [63:0] $end
    $var wire 64 ] regsheap[25] [63:0] $end
    $var wire 64 _ regsheap[26] [63:0] $end
    $var wire 64 a regsheap[27] [63:0] $end
    $var wire 64 c regsheap[28] [63:0] $end
    $var wire 64 e regsheap[29] [63:0] $end
    $var wire 64 / regsheap[2] [63:0] $end
    $var wire 64 g regsheap[30] [63:0] $end
    $var wire 64 i regsheap[31] [63:0] $end
    $var wire 64 1 regsheap[3] [63:0] $end
    $var wire 64 3 regsheap[4] [63:0] $end
    $var wire 64 5 regsheap[5] [63:0] $end
    $var wire 64 7 regsheap[6] [63:0] $end
    $var wire 64 9 regsheap[7] [63:0] $end
    $var wire 64 ; regsheap[8] [63:0] $end
    $var wire 64 = regsheap[9] [63:0] $end
    $var wire  1 l rst $end
   $upscope $end
  $upscope $end
 $upscope $end
$enddefinitions $end


#0
b00000000000000000000000000100000 #
b0000 $
b0000000000000000000000000000000000000000000000000000000000000000 %
b0000000000000000000000000000000000000000000000000000000000000000 '
b0000000000000000000000000000000000000000000000000000000000000000 )
b0000000000000000000000000000000000000000000000000000000000000000 +
b0000000000000000000000000000000000000000000000000000000000000000 -
b0000000000000000000000000000000000000000000000000000000000000000 /
b0000000000000000000000000000000000000000000000000000000000000000 1
b0000000000000000000000000000000000000000000000000000000000000000 3
b0000000000000000000000000000000000000000000000000000000000000000 5
b0000000000000000000000000000000000000000000000000000000000000000 7
b0000000000000000000000000000000000000000000000000000000000000000 9
b0000000000000000000000000000000000000000000000000000000000000000 ;
b0000000000000000000000000000000000000000000000000000000000000000 =
b0000000000000000000000000000000000000000000000000000000000000000 ?
b0000000000000000000000000000000000000000000000000000000000000000 A
b0000000000000000000000000000000000000000000000000000000000000000 C
b0000000000000000000000000000000000000000000000000000000000000000 E
b0000000000000000000000000000000000000000000000000000000000000000 G
b0000000000000000000000000000000000000000000000000000000000000000 I
b0000000000000000000000000000000000000000000000000000000000000000 K
b0000000000000000000000000000000000000000000000000000000000000000 M
b0000000000000000000000000000000000000000000000000000000000000000 O
b0000000000000000000000000000000000000000000000000000000000000000 Q
b0000000000000000000000000000000000000000000000000000000000000000 S
b0000000000000000000000000000000000000000000000000000000000000000 U
b0000000000000000000000000000000000000000000000000000000000000000 W
b0000000000000000000000000000000000000000000000000000000000000000 Y
b0000000000000000000000000000000000000000000000000000000000000000 [
b0000000000000000000000000000000000000000000000000000000000000000 ]
b0000000000000000000000000000000000000000000000000000000000000000 _
b0000000000000000000000000000000000000000000000000000000000000000 a
b0000000000000000000000000000000000000000000000000000000000000000 c
b0000000000000000000000000000000000000000000000000000000000000000 e
b0000000000000000000000000000000000000000000000000000000000000000 g
b0000000000000000000000000000000000000000000000000000000000000000 i
0k
1l
b0000000000000000000000000000000000000000000000000000000000000000 m
1o
0p
b0000000000000000000000000000000000000000000000000000000000000000 q
b0000000000000000000000000000000000000000000000000000000000000000 s
b0000000000000000000000000000000000000000000000000000000000000000 u
b0000000000000000000000000000000000000000000000000000000000000000 w
b00000000000000000000000000000000 y
b00000 z
b00000 {
b00000 |
b0000000000000000000000000000000000000000000000000000000000000000 }
b0000000000000000000000000000000000000000000000000000000000000000 !!
b0000000 #!
b000 $!
0%!
1&!
0'!
b00000000 (!
1)!
b0000000000000000000000000000000000000000000000000000000000000000 *!
b0000000000000000000000000000000000000000000000000000000000000000 ,!
#1
#2
#3
#4
#5
1k
#6
#7
#8
#9
#10
b0000000000000000000000000000000000000000000000000000000000000001 '
0k
b0000000000100000000000001001001100000000000100000000000010010011 m
b00000000000100000000000010010011 y
b00001 {
b00001 |
b0000000000000000000000000000000000000000000000000000000000000001 !!
b0010011 #!
1%!
1'!
b00000001 (!
#11
#12
#13
#14
#15
b0000000000000000000000000000000000000000000000000000000000000100 )
1k
0l
b0000000000000000000000000000000000000000000000000000000000000100 q
#16
#17
#18
#19
#20
b0000000000000000000000000000000000000000000000000000000000000000 '
0k
b0000000000000000000000000000000000000000000000000000000000000000 m
b00000000000000000000000000000000 y
b00000 {
b00000 |
b0000000000000000000000000000000000000000000000000000000000000000 !!
b0000000 #!
0%!
0'!
b00000000 (!
#21
#22
#23
#24
#25
b0000000000000000000000000000000000000000000000000000000000001000 )
1k
b0000000000000000000000000000000000000000000000000000000000001000 q
#26
#27
#28
#29
#30
0k
#31
#32
#33
#34
#35
b0000000000000000000000000000000000000000000000000000000000001100 )
1k
b0000000000000000000000000000000000000000000000000000000000001100 q
#36
#37
#38
#39
#40
0k
#41
#42
#43
#44
#45
b0000000000000000000000000000000000000000000000000000000000010000 )
1k
b0000000000000000000000000000000000000000000000000000000000010000 q
#46
#47
#48
#49
#50
0k
#51
#52
#53
#54
#55
b0000000000000000000000000000000000000000000000000000000000010100 )
1k
b0000000000000000000000000000000000000000000000000000000000010100 q
#56
#57
#58
#59
#60
0k
#61
#62
#63
#64
#65
b0000000000000000000000000000000000000000000000000000000000011000 )
1k
b0000000000000000000000000000000000000000000000000000000000011000 q
#66
#67
#68
#69
#70
0k
#71
#72
#73
#74
#75
b0000000000000000000000000000000000000000000000000000000000011100 )
1k
b0000000000000000000000000000000000000000000000000000000000011100 q
#76
#77
#78
#79
#80
0k
#81
#82
#83
#84
#85
b0000000000000000000000000000000000000000000000000000000000100000 )
1k
b0000000000000000000000000000000000000000000000000000000000100000 q
#86
#87
#88
#89
#90
0k
#91
#92
#93
#94
#95
b0000000000000000000000000000000000000000000000000000000000100100 )
1k
b0000000000000000000000000000000000000000000000000000000000100100 q
#96
#97
#98
#99
#100
0k
#101
#102
#103
#104
#105
b0000000000000000000000000000000000000000000000000000000000101000 )
1k
b0000000000000000000000000000000000000000000000000000000000101000 q
#106
#107
#108
#109
#110
0k
#111
#112
#113
#114
#115
b0000000000000000000000000000000000000000000000000000000000101100 )
1k
b0000000000000000000000000000000000000000000000000000000000101100 q
#116
#117
#118
#119
#120
0k
#121
#122
#123
#124
#125
b0000000000000000000000000000000000000000000000000000000000110000 )
1k
b0000000000000000000000000000000000000000000000000000000000110000 q
#126
#127
#128
#129
#130
0k
#131
#132
#133
#134
#135
b0000000000000000000000000000000000000000000000000000000000110100 )
1k
b0000000000000000000000000000000000000000000000000000000000110100 q
#136
#137
#138
#139
#140
0k
#141
#142
#143
#144
#145
b0000000000000000000000000000000000000000000000000000000000111000 )
1k
b0000000000000000000000000000000000000000000000000000000000111000 q
#146
#147
#148
#149
#150
0k
#151
#152
#153
#154
#155
b0000000000000000000000000000000000000000000000000000000000111100 )
1k
b0000000000000000000000000000000000000000000000000000000000111100 q
#156
#157
#158
#159
#160
0k
#161
#162
#163
#164
#165
b0000000000000000000000000000000000000000000000000000000001000000 )
1k
b0000000000000000000000000000000000000000000000000000000001000000 q
#166
#167
#168
#169
#170
0k
#171
#172
#173
#174
#175
b0000000000000000000000000000000000000000000000000000000001000100 )
1k
b0000000000000000000000000000000000000000000000000000000001000100 q
#176
#177
#178
#179
#180
0k
#181
#182
#183
#184
#185
b0000000000000000000000000000000000000000000000000000000001001000 )
1k
b0000000000000000000000000000000000000000000000000000000001001000 q
#186
#187
#188
#189
#190
0k
#191
#192
#193
#194
#195
b0000000000000000000000000000000000000000000000000000000001001100 )
1k
b0000000000000000000000000000000000000000000000000000000001001100 q
#196
#197
#198
#199
#200
0k
#201
#202
#203
#204
#205
b0000000000000000000000000000000000000000000000000000000001010000 )
1k
b0000000000000000000000000000000000000000000000000000000001010000 q
#206
#207
#208
#209
#210
0k
#211
#212
#213
#214
#215
b0000000000000000000000000000000000000000000000000000000001010100 )
1k
b0000000000000000000000000000000000000000000000000000000001010100 q
#216
#217
#218
#219
#220
0k
#221
#222
#223
#224
#225
b0000000000000000000000000000000000000000000000000000000001011000 )
1k
b0000000000000000000000000000000000000000000000000000000001011000 q
#226
#227
#228
#229
#230
0k
#231
#232
#233
#234
#235
b0000000000000000000000000000000000000000000000000000000001011100 )
1k
b0000000000000000000000000000000000000000000000000000000001011100 q
#236
#237
#238
#239
#240
0k
#241
#242
#243
#244
#245
b0000000000000000000000000000000000000000000000000000000001100000 )
1k
b0000000000000000000000000000000000000000000000000000000001100000 q
#246
#247
#248
#249
#250
0k
#251
#252
#253
#254
#255
b0000000000000000000000000000000000000000000000000000000001100100 )
1k
b0000000000000000000000000000000000000000000000000000000001100100 q
#256
#257
#258
#259
#260
0k
#261
#262
#263
#264
#265
b0000000000000000000000000000000000000000000000000000000001101000 )
1k
b0000000000000000000000000000000000000000000000000000000001101000 q
#266
#267
#268
#269
#270
0k
#271
#272
#273
#274
#275
b0000000000000000000000000000000000000000000000000000000001101100 )
1k
b0000000000000000000000000000000000000000000000000000000001101100 q
#276
#277
#278
#279
#280
0k
#281
#282
#283
#284
#285
b0000000000000000000000000000000000000000000000000000000001110000 )
1k
b0000000000000000000000000000000000000000000000000000000001110000 q
#286
#287
#288
#289
#290
0k
#291
#292
#293
#294
#295
b0000000000000000000000000000000000000000000000000000000001110100 )
1k
b0000000000000000000000000000000000000000000000000000000001110100 q
#296
#297
#298
#299
#300
0k
#301
#302
#303
#304
#305
b0000000000000000000000000000000000000000000000000000000001111000 )
1k
b0000000000000000000000000000000000000000000000000000000001111000 q
#306
#307
#308
#309
#310
0k
#311
#312
#313
#314
#315
b0000000000000000000000000000000000000000000000000000000001111100 )
1k
b0000000000000000000000000000000000000000000000000000000001111100 q
#316
#317
#318
#319
#320
0k
#321
#322
#323
#324
#325
b0000000000000000000000000000000000000000000000000000000010000000 )
1k
b0000000000000000000000000000000000000000000000000000000010000000 q
#326
#327
#328
#329
#330
0k
#331
#332
#333
#334
#335
b0000000000000000000000000000000000000000000000000000000010000100 )
1k
b0000000000000000000000000000000000000000000000000000000010000100 q
#336
#337
#338
#339
#340
0k
#341
#342
#343
#344
#345
b0000000000000000000000000000000000000000000000000000000010001000 )
1k
b0000000000000000000000000000000000000000000000000000000010001000 q
#346
#347
#348
#349
#350
0k
#351
#352
#353
#354
#355
b0000000000000000000000000000000000000000000000000000000010001100 )
1k
b0000000000000000000000000000000000000000000000000000000010001100 q
#356
#357
#358
#359
#360
0k
#361
#362
#363
#364
#365
b0000000000000000000000000000000000000000000000000000000010010000 )
1k
b0000000000000000000000000000000000000000000000000000000010010000 q
#366
#367
#368
#369
#370
0k
#371
#372
#373
#374
#375
b0000000000000000000000000000000000000000000000000000000010010100 )
1k
b0000000000000000000000000000000000000000000000000000000010010100 q
#376
#377
#378
#379
#380
0k
#381
#382
#383
#384
#385
b0000000000000000000000000000000000000000000000000000000010011000 )
1k
b0000000000000000000000000000000000000000000000000000000010011000 q
#386
#387
#388
#389
#390
0k
#391
#392
#393
#394
#395
b0000000000000000000000000000000000000000000000000000000010011100 )
1k
b0000000000000000000000000000000000000000000000000000000010011100 q
#396
#397
#398
#399
#400
0k
#401
#402
#403
#404
#405
b0000000000000000000000000000000000000000000000000000000010100000 )
1k
b0000000000000000000000000000000000000000000000000000000010100000 q
#406
#407
#408
#409
#410
0k
#411
#412
#413
#414
#415
b0000000000000000000000000000000000000000000000000000000010100100 )
1k
b0000000000000000000000000000000000000000000000000000000010100100 q
#416
#417
#418
#419
#420
0k
#421
#422
#423
#424
#425
b0000000000000000000000000000000000000000000000000000000010101000 )
1k
b0000000000000000000000000000000000000000000000000000000010101000 q
#426
#427
#428
#429
#430
0k
#431
#432
#433
#434
#435
b0000000000000000000000000000000000000000000000000000000010101100 )
1k
b0000000000000000000000000000000000000000000000000000000010101100 q
#436
#437
#438
#439
#440
0k
#441
#442
#443
#444
#445
b0000000000000000000000000000000000000000000000000000000010110000 )
1k
b0000000000000000000000000000000000000000000000000000000010110000 q
#446
#447
#448
#449
#450
0k
#451
#452
#453
#454
#455
b0000000000000000000000000000000000000000000000000000000010110100 )
1k
b0000000000000000000000000000000000000000000000000000000010110100 q
#456
#457
#458
#459
#460
0k
#461
#462
#463
#464
#465
b0000000000000000000000000000000000000000000000000000000010111000 )
1k
b0000000000000000000000000000000000000000000000000000000010111000 q
#466
#467
#468
#469
#470
0k
#471
#472
#473
#474
#475
b0000000000000000000000000000000000000000000000000000000010111100 )
1k
b0000000000000000000000000000000000000000000000000000000010111100 q
#476
#477
#478
#479
#480
0k
#481
#482
#483
#484
#485
b0000000000000000000000000000000000000000000000000000000011000000 )
1k
b0000000000000000000000000000000000000000000000000000000011000000 q
#486
#487
#488
#489
#490
0k
#491
#492
#493
#494
#495
b0000000000000000000000000000000000000000000000000000000011000100 )
1k
b0000000000000000000000000000000000000000000000000000000011000100 q
#496
#497
#498
#499
#500
0k
#501
#502
#503
#504
#505
b0000000000000000000000000000000000000000000000000000000011001000 )
1k
b0000000000000000000000000000000000000000000000000000000011001000 q
#506
#507
#508
#509
#510
0k
#511
#512
#513
#514
#515
b0000000000000000000000000000000000000000000000000000000011001100 )
1k
b0000000000000000000000000000000000000000000000000000000011001100 q
#516
#517
#518
#519
#520
0k
#521
#522
#523
#524
#525
b0000000000000000000000000000000000000000000000000000000011010000 )
1k
b0000000000000000000000000000000000000000000000000000000011010000 q
#526
#527
#528
#529
#530
0k
#531
#532
#533
#534
#535
b0000000000000000000000000000000000000000000000000000000011010100 )
1k
b0000000000000000000000000000000000000000000000000000000011010100 q
#536
#537
#538
#539
#540
0k
#541
#542
#543
#544
#545
b0000000000000000000000000000000000000000000000000000000011011000 )
1k
b0000000000000000000000000000000000000000000000000000000011011000 q
#546
#547
#548
#549
#550
0k
#551
#552
#553
#554
#555
b0000000000000000000000000000000000000000000000000000000011011100 )
1k
b0000000000000000000000000000000000000000000000000000000011011100 q
#556
#557
#558
#559
#560
0k
#561
#562
#563
#564
#565
b0000000000000000000000000000000000000000000000000000000011100000 )
1k
b0000000000000000000000000000000000000000000000000000000011100000 q
#566
#567
#568
#569
#570
0k
#571
#572
#573
#574
#575
b0000000000000000000000000000000000000000000000000000000011100100 )
1k
b0000000000000000000000000000000000000000000000000000000011100100 q
#576
#577
#578
#579
#580
0k
#581
#582
#583
#584
#585
b0000000000000000000000000000000000000000000000000000000011101000 )
1k
b0000000000000000000000000000000000000000000000000000000011101000 q
#586
#587
#588
#589
#590
0k
#591
#592
#593
#594
#595
b0000000000000000000000000000000000000000000000000000000011101100 )
1k
b0000000000000000000000000000000000000000000000000000000011101100 q
#596
#597
#598
#599
#600
0k
#601
#602
#603
#604
#605
b0000000000000000000000000000000000000000000000000000000011110000 )
1k
b0000000000000000000000000000000000000000000000000000000011110000 q
#606
#607
#608
#609
#610
0k
#611
#612
#613
#614
#615
b0000000000000000000000000000000000000000000000000000000011110100 )
1k
b0000000000000000000000000000000000000000000000000000000011110100 q
#616
#617
#618
#619
#620
0k
#621
#622
#623
#624
#625
b0000000000000000000000000000000000000000000000000000000011111000 )
1k
b0000000000000000000000000000000000000000000000000000000011111000 q
#626
#627
#628
#629
#630
0k
#631
#632
#633
#634
#635
b0000000000000000000000000000000000000000000000000000000011111100 )
1k
b0000000000000000000000000000000000000000000000000000000011111100 q
#636
#637
#638
#639
#640
0k
#641
#642
#643
#644
#645
b0000000000000000000000000000000000000000000000000000000100000000 )
1k
b0000000000000000000000000000000000000000000000000000000100000000 q
#646
#647
#648
#649
#650
0k
#651
#652
#653
#654
#655
b0000000000000000000000000000000000000000000000000000000100000100 )
1k
b0000000000000000000000000000000000000000000000000000000100000100 q
#656
#657
#658
#659
#660
0k
#661
#662
#663
#664
#665
b0000000000000000000000000000000000000000000000000000000100001000 )
1k
b0000000000000000000000000000000000000000000000000000000100001000 q
#666
#667
#668
#669
#670
0k
#671
#672
#673
#674
#675
b0000000000000000000000000000000000000000000000000000000100001100 )
1k
b0000000000000000000000000000000000000000000000000000000100001100 q
#676
#677
#678
#679
#680
0k
#681
#682
#683
#684
#685
b0000000000000000000000000000000000000000000000000000000100010000 )
1k
b0000000000000000000000000000000000000000000000000000000100010000 q
#686
#687
#688
#689
#690
0k
#691
#692
#693
#694
#695
b0000000000000000000000000000000000000000000000000000000100010100 )
1k
b0000000000000000000000000000000000000000000000000000000100010100 q
#696
#697
#698
#699
#700
0k
#701
#702
#703
#704
#705
b0000000000000000000000000000000000000000000000000000000100011000 )
1k
b0000000000000000000000000000000000000000000000000000000100011000 q
#706
#707
#708
#709
#710
0k
#711
#712
#713
#714
#715
b0000000000000000000000000000000000000000000000000000000100011100 )
1k
b0000000000000000000000000000000000000000000000000000000100011100 q
#716
#717
#718
#719
#720
0k
#721
#722
#723
#724
#725
b0000000000000000000000000000000000000000000000000000000100100000 )
1k
b0000000000000000000000000000000000000000000000000000000100100000 q
#726
#727
#728
#729
#730
0k
#731
#732
#733
#734
#735
b0000000000000000000000000000000000000000000000000000000100100100 )
1k
b0000000000000000000000000000000000000000000000000000000100100100 q
#736
#737
#738
#739
#740
0k
#741
#742
#743
#744
#745
b0000000000000000000000000000000000000000000000000000000100101000 )
1k
b0000000000000000000000000000000000000000000000000000000100101000 q
#746
#747
#748
#749
#750
0k
#751
#752
#753
#754
#755
b0000000000000000000000000000000000000000000000000000000100101100 )
1k
b0000000000000000000000000000000000000000000000000000000100101100 q
#756
#757
#758
#759
#760
0k
#761
#762
#763
#764
#765
b0000000000000000000000000000000000000000000000000000000100110000 )
1k
b0000000000000000000000000000000000000000000000000000000100110000 q
#766
#767
#768
#769
#770
0k
#771
#772
#773
#774
#775
b0000000000000000000000000000000000000000000000000000000100110100 )
1k
b0000000000000000000000000000000000000000000000000000000100110100 q
#776
#777
#778
#779
#780
0k
#781
#782
#783
#784
#785
b0000000000000000000000000000000000000000000000000000000100111000 )
1k
b0000000000000000000000000000000000000000000000000000000100111000 q
#786
#787
#788
#789
#790
0k
#791
#792
#793
#794
#795
b0000000000000000000000000000000000000000000000000000000100111100 )
1k
b0000000000000000000000000000000000000000000000000000000100111100 q
#796
#797
#798
#799
#800
0k
#801
#802
#803
#804
#805
b0000000000000000000000000000000000000000000000000000000101000000 )
1k
b0000000000000000000000000000000000000000000000000000000101000000 q
#806
#807
#808
#809
#810
0k
#811
#812
#813
#814
#815
b0000000000000000000000000000000000000000000000000000000101000100 )
1k
b0000000000000000000000000000000000000000000000000000000101000100 q
#816
#817
#818
#819
#820
0k
#821
#822
#823
#824
#825
b0000000000000000000000000000000000000000000000000000000101001000 )
1k
b0000000000000000000000000000000000000000000000000000000101001000 q
#826
#827
#828
#829
#830
0k
#831
#832
#833
#834
#835
b0000000000000000000000000000000000000000000000000000000101001100 )
1k
b0000000000000000000000000000000000000000000000000000000101001100 q
#836
#837
#838
#839
#840
0k
#841
#842
#843
#844
#845
b0000000000000000000000000000000000000000000000000000000101010000 )
1k
b0000000000000000000000000000000000000000000000000000000101010000 q
#846
#847
#848
#849
#850
0k
#851
#852
#853
#854
#855
b0000000000000000000000000000000000000000000000000000000101010100 )
1k
b0000000000000000000000000000000000000000000000000000000101010100 q
#856
#857
#858
#859
#860
0k
#861
#862
#863
#864
#865
b0000000000000000000000000000000000000000000000000000000101011000 )
1k
b0000000000000000000000000000000000000000000000000000000101011000 q
#866
#867
#868
#869
#870
0k
#871
#872
#873
#874
#875
b0000000000000000000000000000000000000000000000000000000101011100 )
1k
b0000000000000000000000000000000000000000000000000000000101011100 q
#876
#877
#878
#879
#880
0k
#881
#882
#883
#884
#885
b0000000000000000000000000000000000000000000000000000000101100000 )
1k
b0000000000000000000000000000000000000000000000000000000101100000 q
#886
#887
#888
#889
#890
0k
#891
#892
#893
#894
#895
b0000000000000000000000000000000000000000000000000000000101100100 )
1k
b0000000000000000000000000000000000000000000000000000000101100100 q
#896
#897
#898
#899
#900
0k
#901
#902
#903
#904
#905
b0000000000000000000000000000000000000000000000000000000101101000 )
1k
b0000000000000000000000000000000000000000000000000000000101101000 q
#906
#907
#908
#909
#910
0k
#911
#912
#913
#914
#915
b0000000000000000000000000000000000000000000000000000000101101100 )
1k
b0000000000000000000000000000000000000000000000000000000101101100 q
#916
#917
#918
#919
#920
0k
#921
#922
#923
#924
#925
b0000000000000000000000000000000000000000000000000000000101110000 )
1k
b0000000000000000000000000000000000000000000000000000000101110000 q
#926
#927
#928
#929
#930
0k
#931
#932
#933
#934
#935
b0000000000000000000000000000000000000000000000000000000101110100 )
1k
b0000000000000000000000000000000000000000000000000000000101110100 q
#936
#937
#938
#939
#940
0k
#941
#942
#943
#944
#945
b0000000000000000000000000000000000000000000000000000000101111000 )
1k
b0000000000000000000000000000000000000000000000000000000101111000 q
#946
#947
#948
#949
#950
0k
#951
#952
#953
#954
#955
b0000000000000000000000000000000000000000000000000000000101111100 )
1k
b0000000000000000000000000000000000000000000000000000000101111100 q
#956
#957
#958
#959
#960
0k
#961
#962
#963
#964
#965
b0000000000000000000000000000000000000000000000000000000110000000 )
1k
b0000000000000000000000000000000000000000000000000000000110000000 q
#966
#967
#968
#969
#970
0k
#971
#972
#973
#974
#975
b0000000000000000000000000000000000000000000000000000000110000100 )
1k
b0000000000000000000000000000000000000000000000000000000110000100 q
#976
#977
#978
#979
#980
0k
#981
#982
#983
#984
#985
b0000000000000000000000000000000000000000000000000000000110001000 )
1k
b0000000000000000000000000000000000000000000000000000000110001000 q
#986
#987
#988
#989
#990
0k
#991
#992
#993
#994
#995
b0000000000000000000000000000000000000000000000000000000110001100 )
1k
b0000000000000000000000000000000000000000000000000000000110001100 q
#996
#997
#998
#999
#1000
0k
#1001
#1002
#1003
#1004
#1005
b0000000000000000000000000000000000000000000000000000000110010000 )
1k
b0000000000000000000000000000000000000000000000000000000110010000 q
#1006
#1007
#1008
#1009
#1010
0k
#1011
#1012
#1013
#1014
#1015
b0000000000000000000000000000000000000000000000000000000110010100 )
1k
b0000000000000000000000000000000000000000000000000000000110010100 q
#1016
#1017
#1018
#1019
#1020
0k
#1021
#1022
#1023
#1024
#1025
b0000000000000000000000000000000000000000000000000000000110011000 )
1k
b0000000000000000000000000000000000000000000000000000000110011000 q
#1026
#1027
#1028
#1029
#1030
0k
#1031
#1032
#1033
#1034
#1035
b0000000000000000000000000000000000000000000000000000000110011100 )
1k
b0000000000000000000000000000000000000000000000000000000110011100 q
#1036
#1037
#1038
#1039
#1040
0k
#1041
#1042
#1043
#1044
#1045
b0000000000000000000000000000000000000000000000000000000110100000 )
1k
b0000000000000000000000000000000000000000000000000000000110100000 q
#1046
#1047
#1048
#1049
#1050
0k
#1051
#1052
#1053
#1054
#1055
b0000000000000000000000000000000000000000000000000000000110100100 )
1k
b0000000000000000000000000000000000000000000000000000000110100100 q
#1056
#1057
#1058
#1059
#1060
0k
#1061
#1062
#1063
#1064
#1065
b0000000000000000000000000000000000000000000000000000000110101000 )
1k
b0000000000000000000000000000000000000000000000000000000110101000 q
#1066
#1067
#1068
#1069
#1070
0k
#1071
#1072
#1073
#1074
#1075
b0000000000000000000000000000000000000000000000000000000110101100 )
1k
b0000000000000000000000000000000000000000000000000000000110101100 q
#1076
#1077
#1078
#1079
#1080
0k
#1081
#1082
#1083
#1084
#1085
b0000000000000000000000000000000000000000000000000000000110110000 )
1k
b0000000000000000000000000000000000000000000000000000000110110000 q
#1086
#1087
#1088
#1089
#1090
0k
#1091
#1092
#1093
#1094
#1095
b0000000000000000000000000000000000000000000000000000000110110100 )
1k
b0000000000000000000000000000000000000000000000000000000110110100 q
#1096
#1097
#1098
#1099
#1100
0k
#1101
#1102
#1103
#1104
#1105
b0000000000000000000000000000000000000000000000000000000110111000 )
1k
b0000000000000000000000000000000000000000000000000000000110111000 q
#1106
#1107
#1108
#1109
#1110
0k
#1111
#1112
#1113
#1114
#1115
b0000000000000000000000000000000000000000000000000000000110111100 )
1k
b0000000000000000000000000000000000000000000000000000000110111100 q
#1116
#1117
#1118
#1119
#1120
0k
#1121
#1122
#1123
#1124
#1125
b0000000000000000000000000000000000000000000000000000000111000000 )
1k
b0000000000000000000000000000000000000000000000000000000111000000 q
#1126
#1127
#1128
#1129
#1130
0k
#1131
#1132
#1133
#1134
#1135
b0000000000000000000000000000000000000000000000000000000111000100 )
1k
b0000000000000000000000000000000000000000000000000000000111000100 q
#1136
#1137
#1138
#1139
#1140
0k
#1141
#1142
#1143
#1144
#1145
b0000000000000000000000000000000000000000000000000000000111001000 )
1k
b0000000000000000000000000000000000000000000000000000000111001000 q
#1146
#1147
#1148
#1149
#1150
0k
#1151
#1152
#1153
#1154
#1155
b0000000000000000000000000000000000000000000000000000000111001100 )
1k
b0000000000000000000000000000000000000000000000000000000111001100 q
#1156
#1157
#1158
#1159
#1160
0k
#1161
#1162
#1163
#1164
#1165
b0000000000000000000000000000000000000000000000000000000111010000 )
1k
b0000000000000000000000000000000000000000000000000000000111010000 q
#1166
#1167
#1168
#1169
#1170
0k
#1171
#1172
#1173
#1174
#1175
b0000000000000000000000000000000000000000000000000000000111010100 )
1k
b0000000000000000000000000000000000000000000000000000000111010100 q
#1176
#1177
#1178
#1179
#1180
0k
#1181
#1182
#1183
#1184
#1185
b0000000000000000000000000000000000000000000000000000000111011000 )
1k
b0000000000000000000000000000000000000000000000000000000111011000 q
#1186
#1187
#1188
#1189
#1190
0k
#1191
#1192
#1193
#1194
#1195
b0000000000000000000000000000000000000000000000000000000111011100 )
1k
b0000000000000000000000000000000000000000000000000000000111011100 q
#1196
#1197
#1198
#1199
#1200
0k
#1201
#1202
#1203
#1204
#1205
b0000000000000000000000000000000000000000000000000000000111100000 )
1k
b0000000000000000000000000000000000000000000000000000000111100000 q
#1206
#1207
#1208
#1209
#1210
0k
#1211
#1212
#1213
#1214
#1215
b0000000000000000000000000000000000000000000000000000000111100100 )
1k
b0000000000000000000000000000000000000000000000000000000111100100 q
#1216
#1217
#1218
#1219
#1220
0k
#1221
#1222
#1223
#1224
#1225
b0000000000000000000000000000000000000000000000000000000111101000 )
1k
b0000000000000000000000000000000000000000000000000000000111101000 q
#1226
#1227
#1228
#1229
#1230
0k
#1231
#1232
#1233
#1234
#1235
b0000000000000000000000000000000000000000000000000000000111101100 )
1k
b0000000000000000000000000000000000000000000000000000000111101100 q
#1236
#1237
#1238
#1239
