Difftest_Platform/oscpu-framework/projects/zerocpu/top.vcd
$version Generated by VerilatedVcd $end
$date Mon Jun 13 20:56:52 2022 $end
$timescale 1ps $end

 $scope module TOP $end
  $var wire 64 #! RamReadAddr [63:0] $end
  $var wire 64 } RamReadData [63:0] $end
  $var wire  1 !! RamReadEnable $end
  $var wire 64 %! RamWriteAddr [63:0] $end
  $var wire 64 )! RamWriteData [63:0] $end
  $var wire  1 "! RamWriteEnable $end
  $var wire 64 '! RamWriteMask [63:0] $end
  $var wire  1 { clk $end
  $var wire  1 | rst $end
  $scope module zerocore $end
   $var wire 64 #! RamReadAddr [63:0] $end
   $var wire 64 } RamReadData [63:0] $end
   $var wire  1 !! RamReadEnable $end
   $var wire 64 %! RamWriteAddr [63:0] $end
   $var wire 64 )! RamWriteData [63:0] $end
   $var wire  1 "! RamWriteEnable $end
   $var wire 64 '! RamWriteMask [63:0] $end
   $var wire  1 * aluBsrc $end
   $var wire  4 ;! aluCtl [3:0] $end
   $var wire  1 { clk $end
   $var wire 64 + imm [63:0] $end
   $var wire 64 & ina [63:0] $end
   $var wire 64 ( inb [63:0] $end
   $var wire 32 % instD [31:0] $end
   $var wire 32 8! instE [31:0] $end
   $var wire 32 +! instF [31:0] $end
   $var wire 32 0! instM [31:0] $end
   $var wire 32 5! instW [31:0] $end
   $var wire 64 3! pcD [63:0] $end
   $var wire 64 9! pcE [63:0] $end
   $var wire 64 # pcF [63:0] $end
   $var wire 64 1! pcM [63:0] $end
   $var wire 64 6! pcW [63:0] $end
   $var wire  5 1 rdWriteAddrW [4:0] $end
   $var wire 64 2 rdWriteDataW [63:0] $end
   $var wire  1 <! rdWriteEnableW $end
   $var wire 64 ,! rs1DataD [63:0] $end
   $var wire 64 & rs1DataE [63:0] $end
   $var wire  5 - rs1ReadAddr [4:0] $end
   $var wire  1 <! rs1ReadEnable $end
   $var wire 64 .! rs2DataD [63:0] $end
   $var wire 64 / rs2DataE [63:0] $end
   $var wire  5 . rs2ReadAddr [4:0] $end
   $var wire  1 <! rs2ReadEnable $end
   $var wire  1 | rst $end
   $scope module rs1Data_D2E $end
    $var wire 32 =! WIDTH [31:0] $end
    $var wire  1 { clk $end
    $var wire 64 ,! din [63:0] $end
    $var wire 64 & dout [63:0] $end
    $var wire  1 | rst $end
    $var wire  1 <! wen $end
   $upscope $end
   $scope module rs2Data_D2E $end
    $var wire 32 =! WIDTH [31:0] $end
    $var wire  1 { clk $end
    $var wire 64 .! din [63:0] $end
    $var wire 64 / dout [63:0] $end
    $var wire  1 | rst $end
    $var wire  1 <! wen $end
   $upscope $end
   $scope module u_ex $end
    $var wire  4 ;! aluCtl [3:0] $end
    $var wire 64 & ina [63:0] $end
    $var wire 64 ( inb [63:0] $end
    $var wire 64 2 outy [63:0] $end
    $var wire 64 2 resADD [63:0] $end
   $upscope $end
   $scope module u_id $end
    $var wire  1 9 ADD $end
    $var wire  1 * ADDI $end
    $var wire  1 * aluBsrc $end
    $var wire  4 ;! aluCtl [3:0] $end
    $var wire  8 : aluType [7:0] $end
    $var wire  3 5 funt3 [2:0] $end
    $var wire  1 8 funt3_000 $end
    $var wire 64 + imm [63:0] $end
    $var wire 32 % inst [31:0] $end
    $var wire  7 4 opcode [6:0] $end
    $var wire  1 6 opcode_001_0011 $end
    $var wire  1 7 opcode_011_0011 $end
    $var wire  5 - ra_addr [4:0] $end
    $var wire  1 <! ra_en $end
    $var wire  5 . rb_addr [4:0] $end
    $var wire  1 <! rb_en $end
    $var wire  5 1 rd_addr [4:0] $end
    $var wire  1 <! rd_en $end
   $upscope $end
   $scope module u_if $end
    $var wire  1 { clk $end
    $var wire 32 % instD [31:0] $end
    $var wire 32 +! instF [31:0] $end
    $var wire 64 # pc [63:0] $end
    $var wire  1 | rst $end
    $scope module u_inst_F2D $end
     $var wire 32 >! WIDTH [31:0] $end
     $var wire  1 { clk $end
     $var wire 32 +! din [31:0] $end
     $var wire 32 % dout [31:0] $end
     $var wire  1 | rst $end
     $var wire  1 <! wen $end
    $upscope $end
   $upscope $end
   $scope module u_regs $end
    $var wire  5 - ReadAddr1 [4:0] $end
    $var wire  5 . ReadAddr2 [4:0] $end
    $var wire 64 ,! ReadData1 [63:0] $end
    $var wire 64 .! ReadData2 [63:0] $end
    $var wire  1 <! ReadEnable1 $end
    $var wire  1 <! ReadEnable2 $end
    $var wire  5 1 WriteAddr [4:0] $end
    $var wire 64 2 WriteData [63:0] $end
    $var wire  1 <! WriteEnable $end
    $var wire  1 { clk $end
    $var wire 64 ; regs[0] [63:0] $end
    $var wire 64 O regs[10] [63:0] $end
    $var wire 64 Q regs[11] [63:0] $end
    $var wire 64 S regs[12] [63:0] $end
    $var wire 64 U regs[13] [63:0] $end
    $var wire 64 W regs[14] [63:0] $end
    $var wire 64 Y regs[15] [63:0] $end
    $var wire 64 [ regs[16] [63:0] $end
    $var wire 64 ] regs[17] [63:0] $end
    $var wire 64 _ regs[18] [63:0] $end
    $var wire 64 a regs[19] [63:0] $end
    $var wire 64 = regs[1] [63:0] $end
    $var wire 64 c regs[20] [63:0] $end
    $var wire 64 e regs[21] [63:0] $end
    $var wire 64 g regs[22] [63:0] $end
    $var wire 64 i regs[23] [63:0] $end
    $var wire 64 k regs[24] [63:0] $end
    $var wire 64 m regs[25] [63:0] $end
    $var wire 64 o regs[26] [63:0] $end
    $var wire 64 q regs[27] [63:0] $end
    $var wire 64 s regs[28] [63:0] $end
    $var wire 64 u regs[29] [63:0] $end
    $var wire 64 ? regs[2] [63:0] $end
    $var wire 64 w regs[30] [63:0] $end
    $var wire 64 y regs[31] [63:0] $end
    $var wire 64 A regs[3] [63:0] $end
    $var wire 64 C regs[4] [63:0] $end
    $var wire 64 E regs[5] [63:0] $end
    $var wire 64 G regs[6] [63:0] $end
    $var wire 64 I regs[7] [63:0] $end
    $var wire 64 K regs[8] [63:0] $end
    $var wire 64 M regs[9] [63:0] $end
    $var wire  1 | rst $end
   $upscope $end
  $upscope $end
 $upscope $end
$enddefinitions $end


#0
b0000000000000000000000000000000000000000000000000000000000000000 #
b00000000000000000000000000000000 %
b0000000000000000000000000000000000000000000000000000000000000000 &
b0000000000000000000000000000000000000000000000000000000000000000 (
0*
b0000000000000000000000000000000000000000000000000000000000000000 +
b00000 -
b00000 .
b0000000000000000000000000000000000000000000000000000000000000000 /
b00000 1
b0000000000000000000000000000000000000000000000000000000000000000 2
b0000000 4
b000 5
06
07
18
09
b00000000 :
b0000000000000000000000000000000000000000000000000000000000000000 ;
b0000000000000000000000000000000000000000000000000000000000000000 =
b0000000000000000000000000000000000000000000000000000000000000000 ?
b0000000000000000000000000000000000000000000000000000000000000000 A
b0000000000000000000000000000000000000000000000000000000000000000 C
b0000000000000000000000000000000000000000000000000000000000000000 E
b0000000000000000000000000000000000000000000000000000000000000000 G
b0000000000000000000000000000000000000000000000000000000000000000 I
b0000000000000000000000000000000000000000000000000000000000000000 K
b0000000000000000000000000000000000000000000000000000000000000000 M
b0000000000000000000000000000000000000000000000000000000000000000 O
b0000000000000000000000000000000000000000000000000000000000000000 Q
b0000000000000000000000000000000000000000000000000000000000000000 S
b0000000000000000000000000000000000000000000000000000000000000000 U
b0000000000000000000000000000000000000000000000000000000000000000 W
b0000000000000000000000000000000000000000000000000000000000000000 Y
b0000000000000000000000000000000000000000000000000000000000000000 [
b0000000000000000000000000000000000000000000000000000000000000000 ]
b0000000000000000000000000000000000000000000000000000000000000000 _
b0000000000000000000000000000000000000000000000000000000000000000 a
b0000000000000000000000000000000000000000000000000000000000000000 c
b0000000000000000000000000000000000000000000000000000000000000000 e
b0000000000000000000000000000000000000000000000000000000000000000 g
b0000000000000000000000000000000000000000000000000000000000000000 i
b0000000000000000000000000000000000000000000000000000000000000000 k
b0000000000000000000000000000000000000000000000000000000000000000 m
b0000000000000000000000000000000000000000000000000000000000000000 o
b0000000000000000000000000000000000000000000000000000000000000000 q
b0000000000000000000000000000000000000000000000000000000000000000 s
b0000000000000000000000000000000000000000000000000000000000000000 u
b0000000000000000000000000000000000000000000000000000000000000000 w
b0000000000000000000000000000000000000000000000000000000000000000 y
0{
1|
b0000000000000000000000000000000000000000000000000000000000000000 }
1!!
0"!
b0000000000000000000000000000000000000000000000000000000000000000 #!
b0000000000000000000000000000000000000000000000000000000000000000 %!
b0000000000000000000000000000000000000000000000000000000000000000 '!
b0000000000000000000000000000000000000000000000000000000000000000 )!
b00000000000000000000000000000000 +!
b0000000000000000000000000000000000000000000000000000000000000000 ,!
b0000000000000000000000000000000000000000000000000000000000000000 .!
b00000000000000000000000000000000 0!
b0000000000000000000000000000000000000000000000000000000000000000 1!
b0000000000000000000000000000000000000000000000000000000000000000 3!
b00000000000000000000000000000000 5!
b0000000000000000000000000000000000000000000000000000000000000000 6!
b00000000000000000000000000000000 8!
b0000000000000000000000000000000000000000000000000000000000000000 9!
b0000 ;!
1<!
b00000000000000000000000001000000 =!
b00000000000000000000000000100000 >!
#1
#2
#3
#4
#5
1{
#6
#7
#8
#9
#10
0{
#11
#12
#13
#14
#15
1{
#16
#17
#18
#19
#20
0{
0|
#21
#22
#23
#24
#25
b0000000000000000000000000000000000000000000000000000000000000001 #
1{
b0000000000000000000000000000000000000000000000000000000000000001 #!
#26
#27
#28
#29
#30
0{
#31
#32
#33
#34
#35
b0000000000000000000000000000000000000000000000000000000000000010 #
b00000000000100000000000010010011 %
b0000000000000000000000000000000000000000000000000000000000000001 (
1*
b0000000000000000000000000000000000000000000000000000000000000001 +
b00001 .
b00001 1
b0000000000000000000000000000000000000000000000000000000000000001 2
b0010011 4
16
b00000001 :
1{
b0000000000000000000000000000000000000000000100000000000010010011 }
b0000000000000000000000000000000000000000000000000000000000000010 #!
b00000000000100000000000010010011 +!
b0000000000000000000000000000000000000000000000000000000000000001 .!
#36
#37
#38
#39
#40
0{
#41
#42
#43
#44
#45
b0000000000000000000000000000000000000000000000000000000000000011 #
b00000000001000000000000010010011 %
b0000000000000000000000000000000000000000000000000000000000000010 (
b0000000000000000000000000000000000000000000000000000000000000010 +
b00010 .
b0000000000000000000000000000000000000000000000000000000000000001 /
b0000000000000000000000000000000000000000000000000000000000000010 2
b0000000000000000000000000000000000000000000000000000000000000001 =
1{
b0000000000000000000000000000000000000000001000000000000010010011 }
b0000000000000000000000000000000000000000000000000000000000000011 #!
b00000000001000000000000010010011 +!
b0000000000000000000000000000000000000000000000000000000000000000 .!
#46
#47
#48
#49
#50
0{
#51
#52
#53
#54
#55
b0000000000000000000000000000000000000000000000000000000000000100 #
b00000000000100001000000010010011 %
b0000000000000000000000000000000000000000000000000000000000000001 (
b0000000000000000000000000000000000000000000000000000000000000001 +
b00001 -
b00001 .
b0000000000000000000000000000000000000000000000000000000000000000 /
b0000000000000000000000000000000000000000000000000000000000000001 2
b0000000000000000000000000000000000000000000000000000000000000010 =
1{
b0000000000000000000000000000000000000000000100001000000010010011 }
b0000000000000000000000000000000000000000000000000000000000000100 #!
b00000000000100001000000010010011 +!
b0000000000000000000000000000000000000000000000000000000000000001 ,!
b0000000000000000000000000000000000000000000000000000000000000001 .!
#56
#57
#58
#59
#60
0{
#61
#62
#63
#64
#65
b0000000000000000000000000000000000000000000000000000000000000101 #
b00000000000000000000000000000000 %
b0000000000000000000000000000000000000000000000000000000000000001 &
0*
b0000000000000000000000000000000000000000000000000000000000000000 +
b00000 -
b00000 .
b0000000000000000000000000000000000000000000000000000000000000001 /
b00000 1
b0000000000000000000000000000000000000000000000000000000000000010 2
b0000000 4
06
b00000000 :
b0000000000000000000000000000000000000000000000000000000000000001 =
1{
b0000000000000000000000000000000000000000000000000000000000000000 }
b0000000000000000000000000000000000000000000000000000000000000101 #!
b00000000000000000000000000000000 +!
b0000000000000000000000000000000000000000000000000000000000000010 ,!
b0000000000000000000000000000000000000000000000000000000000000010 .!
#66
#67
#68
#69
#70
0{
#71
#72
#73
#74
#75
b0000000000000000000000000000000000000000000000000000000000000110 #
b0000000000000000000000000000000000000000000000000000000000000010 &
b0000000000000000000000000000000000000000000000000000000000000010 (
b0000000000000000000000000000000000000000000000000000000000000010 /
b0000000000000000000000000000000000000000000000000000000000000100 2
b0000000000000000000000000000000000000000000000000000000000000010 ;
1{
b0000000000000000000000000000000000000000000000000000000000000110 #!
b0000000000000000000000000000000000000000000000000000000000000100 ,!
b0000000000000000000000000000000000000000000000000000000000000100 .!
#76
#77
#78
#79
#80
0{
#81
#82
#83
#84
#85
b0000000000000000000000000000000000000000000000000000000000000111 #
b0000000000000000000000000000000000000000000000000000000000000100 &
b0000000000000000000000000000000000000000000000000000000000000100 (
b0000000000000000000000000000000000000000000000000000000000000100 /
b0000000000000000000000000000000000000000000000000000000000001000 2
b0000000000000000000000000000000000000000000000000000000000000100 ;
1{
b0000000000000000000000000000000000000000000000000000000000000111 #!
b0000000000000000000000000000000000000000000000000000000000001000 ,!
b0000000000000000000000000000000000000000000000000000000000001000 .!
#86
#87
#88
#89
#90
0{
#91
#92
#93
#94
#95
b0000000000000000000000000000000000000000000000000000000000001000 #
b0000000000000000000000000000000000000000000000000000000000001000 &
b0000000000000000000000000000000000000000000000000000000000001000 (
b0000000000000000000000000000000000000000000000000000000000001000 /
b0000000000000000000000000000000000000000000000000000000000010000 2
b0000000000000000000000000000000000000000000000000000000000001000 ;
1{
b0000000000000000000000000000000000000000000000000000000000001000 #!
b0000000000000000000000000000000000000000000000000000000000010000 ,!
b0000000000000000000000000000000000000000000000000000000000010000 .!
