Difftest_Platform/oscpu-framework/projects/zerocpu/top.vcd
$version Generated by VerilatedVcd $end
$date Tue Jun  7 23:30:38 2022 $end
$timescale 1ps $end

 $scope module TOP $end
  $var wire 64 &! RamReadAddr [63:0] $end
  $var wire 64 "! RamReadData [63:0] $end
  $var wire  1 $! RamReadEnable $end
  $var wire 64 (! RamWriteAddr [63:0] $end
  $var wire 64 ,! RamWriteData [63:0] $end
  $var wire  1 %! RamWriteEnable $end
  $var wire 64 *! RamWriteMask [63:0] $end
  $var wire  1 ~ clk $end
  $var wire  1 !! rst $end
  $scope module zerocore $end
   $var wire 64 &! RamReadAddr [63:0] $end
   $var wire 64 "! RamReadData [63:0] $end
   $var wire  1 $! RamReadEnable $end
   $var wire 64 (! RamWriteAddr [63:0] $end
   $var wire 64 ,! RamWriteData [63:0] $end
   $var wire  1 %! RamWriteEnable $end
   $var wire 64 *! RamWriteMask [63:0] $end
   $var wire  1 5! aluBsrc $end
   $var wire  4 & aluCtl [3:0] $end
   $var wire  1 ~ clk $end
   $var wire 64 * imm [63:0] $end
   $var wire 64 1! ina [63:0] $end
   $var wire 64 * inb [63:0] $end
   $var wire 32 , instD [31:0] $end
   $var wire 32 / instE [31:0] $end
   $var wire 32 .! instF [31:0] $end
   $var wire 32 2 instM [31:0] $end
   $var wire 32 5 instW [31:0] $end
   $var wire 64 $ pc [63:0] $end
   $var wire 64 - pcD [63:0] $end
   $var wire 64 0 pcE [63:0] $end
   $var wire 64 $ pcF [63:0] $end
   $var wire 64 3 pcM [63:0] $end
   $var wire 64 6 pcW [63:0] $end
   $var wire 64 6! ra [63:0] $end
   $var wire  5 ' ra_addr [4:0] $end
   $var wire  1 5! ra_en $end
   $var wire 64 /! rb [63:0] $end
   $var wire  5 ( rb_addr [4:0] $end
   $var wire  1 5! rb_en $end
   $var wire  5 ) rd_addr [4:0] $end
   $var wire  1 5! rd_en $end
   $var wire 64 3! res [63:0] $end
   $var wire  1 !! rst $end
   $var wire 64 8! rw [63:0] $end
   $scope module u_ex $end
    $var wire  4 & aluCtl [3:0] $end
    $var wire 64 1! ina [63:0] $end
    $var wire 64 * inb [63:0] $end
    $var wire 64 3! res [63:0] $end
   $upscope $end
   $scope module u_id $end
    $var wire  1 < ADDI $end
    $var wire  1 5! aluBsrc $end
    $var wire  4 & aluCtl [3:0] $end
    $var wire  8 = aluType [7:0] $end
    $var wire  3 9 funt3 [2:0] $end
    $var wire  1 ; funt3_000 $end
    $var wire 64 * imm [63:0] $end
    $var wire 32 , inst [31:0] $end
    $var wire  7 8 opcode [6:0] $end
    $var wire  1 : opcode_001_0011 $end
    $var wire  5 ' ra_addr [4:0] $end
    $var wire  1 5! ra_en $end
    $var wire  5 ( rb_addr [4:0] $end
    $var wire  1 5! rb_en $end
    $var wire  5 ) rd_addr [4:0] $end
    $var wire  1 5! rd_en $end
   $upscope $end
   $scope module u_if $end
    $var wire  1 ~ clk $end
    $var wire 64 $ pc [63:0] $end
    $var wire  1 !! rst $end
   $upscope $end
   $scope module u_inst_D2E $end
    $var wire 32 :! WIDTH [31:0] $end
    $var wire  1 ~ clk $end
    $var wire 32 , din [31:0] $end
    $var wire 32 / dout [31:0] $end
    $var wire  1 !! rst $end
    $var wire  1 5! wen $end
   $upscope $end
   $scope module u_inst_E2M $end
    $var wire 32 :! WIDTH [31:0] $end
    $var wire  1 ~ clk $end
    $var wire 32 / din [31:0] $end
    $var wire 32 2 dout [31:0] $end
    $var wire  1 !! rst $end
    $var wire  1 5! wen $end
   $upscope $end
   $scope module u_inst_F2D $end
    $var wire 32 :! WIDTH [31:0] $end
    $var wire  1 ~ clk $end
    $var wire 32 .! din [31:0] $end
    $var wire 32 , dout [31:0] $end
    $var wire  1 !! rst $end
    $var wire  1 5! wen $end
   $upscope $end
   $scope module u_inst_M2W $end
    $var wire 32 :! WIDTH [31:0] $end
    $var wire  1 ~ clk $end
    $var wire 32 2 din [31:0] $end
    $var wire 32 5 dout [31:0] $end
    $var wire  1 !! rst $end
    $var wire  1 5! wen $end
   $upscope $end
   $scope module u_pc_D2E $end
    $var wire 32 ;! WIDTH [31:0] $end
    $var wire  1 ~ clk $end
    $var wire 64 - din [63:0] $end
    $var wire 64 0 dout [63:0] $end
    $var wire  1 !! rst $end
    $var wire  1 5! wen $end
   $upscope $end
   $scope module u_pc_E2M $end
    $var wire 32 ;! WIDTH [31:0] $end
    $var wire  1 ~ clk $end
    $var wire 64 0 din [63:0] $end
    $var wire 64 3 dout [63:0] $end
    $var wire  1 !! rst $end
    $var wire  1 5! wen $end
   $upscope $end
   $scope module u_pc_F2D $end
    $var wire 32 ;! WIDTH [31:0] $end
    $var wire  1 ~ clk $end
    $var wire 64 $ din [63:0] $end
    $var wire 64 - dout [63:0] $end
    $var wire  1 !! rst $end
    $var wire  1 5! wen $end
   $upscope $end
   $scope module u_pc_M2W $end
    $var wire 32 ;! WIDTH [31:0] $end
    $var wire  1 ~ clk $end
    $var wire 64 3 din [63:0] $end
    $var wire 64 6 dout [63:0] $end
    $var wire  1 !! rst $end
    $var wire  1 5! wen $end
   $upscope $end
   $scope module u_regs $end
    $var wire 64 1! Ra [63:0] $end
    $var wire  5 ' Ra_addr [4:0] $end
    $var wire  1 5! Ra_en $end
    $var wire 64 /! Rb [63:0] $end
    $var wire  5 ( Rb_addr [4:0] $end
    $var wire  1 5! Rb_en $end
    $var wire 64 8! Rw [63:0] $end
    $var wire  5 ) Rw_addr [4:0] $end
    $var wire  1 5! Rw_en $end
    $var wire  1 ~ clk $end
    $var wire 32 # i [31:0] $end
    $var wire 64 > regsheap[0] [63:0] $end
    $var wire 64 R regsheap[10] [63:0] $end
    $var wire 64 T regsheap[11] [63:0] $end
    $var wire 64 V regsheap[12] [63:0] $end
    $var wire 64 X regsheap[13] [63:0] $end
    $var wire 64 Z regsheap[14] [63:0] $end
    $var wire 64 \ regsheap[15] [63:0] $end
    $var wire 64 ^ regsheap[16] [63:0] $end
    $var wire 64 ` regsheap[17] [63:0] $end
    $var wire 64 b regsheap[18] [63:0] $end
    $var wire 64 d regsheap[19] [63:0] $end
    $var wire 64 @ regsheap[1] [63:0] $end
    $var wire 64 f regsheap[20] [63:0] $end
    $var wire 64 h regsheap[21] [63:0] $end
    $var wire 64 j regsheap[22] [63:0] $end
    $var wire 64 l regsheap[23] [63:0] $end
    $var wire 64 n regsheap[24] [63:0] $end
    $var wire 64 p regsheap[25] [63:0] $end
    $var wire 64 r regsheap[26] [63:0] $end
    $var wire 64 t regsheap[27] [63:0] $end
    $var wire 64 v regsheap[28] [63:0] $end
    $var wire 64 x regsheap[29] [63:0] $end
    $var wire 64 B regsheap[2] [63:0] $end
    $var wire 64 z regsheap[30] [63:0] $end
    $var wire 64 | regsheap[31] [63:0] $end
    $var wire 64 D regsheap[3] [63:0] $end
    $var wire 64 F regsheap[4] [63:0] $end
    $var wire 64 H regsheap[5] [63:0] $end
    $var wire 64 J regsheap[6] [63:0] $end
    $var wire 64 L regsheap[7] [63:0] $end
    $var wire 64 N regsheap[8] [63:0] $end
    $var wire 64 P regsheap[9] [63:0] $end
    $var wire  1 !! rst $end
   $upscope $end
  $upscope $end
 $upscope $end
$enddefinitions $end


#0
b00000000000000000000000000100000 #
b0000000000000000000000000000000000000000000000000000000000000000 $
b0000 &
b00000 '
b00000 (
b00000 )
b0000000000000000000000000000000000000000000000000000000000000000 *
b00000000000000000000000000000000 ,
b0000000000000000000000000000000000000000000000000000000000000000 -
b00000000000000000000000000000000 /
b0000000000000000000000000000000000000000000000000000000000000000 0
b00000000000000000000000000000000 2
b0000000000000000000000000000000000000000000000000000000000000000 3
b00000000000000000000000000000000 5
b0000000000000000000000000000000000000000000000000000000000000000 6
b0000000 8
b000 9
0:
1;
0<
b00000000 =
b0000000000000000000000000000000000000000000000000000000000000000 >
b0000000000000000000000000000000000000000000000000000000000000000 @
b0000000000000000000000000000000000000000000000000000000000000000 B
b0000000000000000000000000000000000000000000000000000000000000000 D
b0000000000000000000000000000000000000000000000000000000000000000 F
b0000000000000000000000000000000000000000000000000000000000000000 H
b0000000000000000000000000000000000000000000000000000000000000000 J
b0000000000000000000000000000000000000000000000000000000000000000 L
b0000000000000000000000000000000000000000000000000000000000000000 N
b0000000000000000000000000000000000000000000000000000000000000000 P
b0000000000000000000000000000000000000000000000000000000000000000 R
b0000000000000000000000000000000000000000000000000000000000000000 T
b0000000000000000000000000000000000000000000000000000000000000000 V
b0000000000000000000000000000000000000000000000000000000000000000 X
b0000000000000000000000000000000000000000000000000000000000000000 Z
b0000000000000000000000000000000000000000000000000000000000000000 \
b0000000000000000000000000000000000000000000000000000000000000000 ^
b0000000000000000000000000000000000000000000000000000000000000000 `
b0000000000000000000000000000000000000000000000000000000000000000 b
b0000000000000000000000000000000000000000000000000000000000000000 d
b0000000000000000000000000000000000000000000000000000000000000000 f
b0000000000000000000000000000000000000000000000000000000000000000 h
b0000000000000000000000000000000000000000000000000000000000000000 j
b0000000000000000000000000000000000000000000000000000000000000000 l
b0000000000000000000000000000000000000000000000000000000000000000 n
b0000000000000000000000000000000000000000000000000000000000000000 p
b0000000000000000000000000000000000000000000000000000000000000000 r
b0000000000000000000000000000000000000000000000000000000000000000 t
b0000000000000000000000000000000000000000000000000000000000000000 v
b0000000000000000000000000000000000000000000000000000000000000000 x
b0000000000000000000000000000000000000000000000000000000000000000 z
b0000000000000000000000000000000000000000000000000000000000000000 |
0~
1!!
b0000000000000000000000000000000000000000000000000000000000000000 "!
0$!
0%!
b0000000000000000000000000000000000000000000000000000000000000000 &!
b0000000000000000000000000000000000000000000000000000000000000000 (!
b0000000000000000000000000000000000000000000000000000000000000000 *!
b0000000000000000000000000000000000000000000000000000000000000000 ,!
b00000000000000000000000000000000 .!
b0000000000000000000000000000000000000000000000000000000000000000 /!
b0000000000000000000000000000000000000000000000000000000000000000 1!
b0000000000000000000000000000000000000000000000000000000000000000 3!
15!
b0000000000000000000000000000000000000000000000000000000000000000 6!
b0000000000000000000000000000000000000000000000000000000000000000 8!
b00000000000000000000000000100000 :!
b00000000000000000000000001000000 ;!
#1
#2
#3
#4
#5
1~
#6
#7
#8
#9
#10
0~
0!!
1$!
#11
#12
#13
#14
#15
b0000000000000000000000000000000000000000000000000000000000000001 $
b00001 (
b00001 )
b0000000000000000000000000000000000000000000000000000000000000001 *
b00000000000100000000000010010011 ,
b0010011 8
1:
1<
b00000001 =
1~
b0000000000100000000000001001001100000000000100000000000010010011 "!
b0000000000000000000000000000000000000000000000000000000000000001 &!
b00000000000100000000000010010011 .!
b0000000000000000000000000000000000000000000000000000000000000001 3!
#16
#17
#18
#19
#20
0~
#21
#22
#23
#24
#25
b0000000000000000000000000000000000000000000000000000000000000010 $
b00001 '
b00000000000100001000000010010011 ,
b0000000000000000000000000000000000000000000000000000000000000001 -
b00000000000100000000000010010011 /
1~
b0000000000000000000000000110101100000000000100001000000010010011 "!
b0000000000000000000000000000000000000000000000000000000000000010 &!
b00000000000000000000000001101011 .!
#26
#27
#28
#29
#30
0~
#31
#32
#33
#34
#35
b0000000000000000000000000000000000000000000000000000000000000011 $
b00000 '
b00000 (
b00000 )
b0000000000000000000000000000000000000000000000000000000000000000 *
b00000000000000000000000000000000 ,
b0000000000000000000000000000000000000000000000000000000000000010 -
b00000000000100001000000010010011 /
b0000000000000000000000000000000000000000000000000000000000000001 0
b00000000000100000000000010010011 2
b0000000 8
0:
0<
b00000000 =
1~
b0000000000000000000000000000000000000000000000000000000000000000 "!
b0000000000000000000000000000000000000000000000000000000000000011 &!
b00000000000000000000000000000000 .!
b0000000000000000000000000000000000000000000000000000000000000000 3!
#36
#37
#38
#39
#40
0~
#41
#42
#43
#44
#45
b0000000000000000000000000000000000000000000000000000000000000100 $
b0000000000000000000000000000000000000000000000000000000000000011 -
b00000000000000000000000000000000 /
b0000000000000000000000000000000000000000000000000000000000000010 0
b00000000000100001000000010010011 2
b0000000000000000000000000000000000000000000000000000000000000001 3
b00000000000100000000000010010011 5
1~
b0000000000000000000000000000000000000000000000000000000000000100 &!
#46
#47
#48
#49
#50
0~
#51
#52
#53
#54
#55
b0000000000000000000000000000000000000000000000000000000000000101 $
b0000000000000000000000000000000000000000000000000000000000000100 -
b0000000000000000000000000000000000000000000000000000000000000011 0
b00000000000000000000000000000000 2
b0000000000000000000000000000000000000000000000000000000000000010 3
b00000000000100001000000010010011 5
b0000000000000000000000000000000000000000000000000000000000000001 6
1~
b0000000000000000000000000000000000000000000000000000000000000101 &!
#56
#57
#58
#59
#60
0~
#61
#62
#63
#64
#65
b0000000000000000000000000000000000000000000000000000000000000110 $
b0000000000000000000000000000000000000000000000000000000000000101 -
b0000000000000000000000000000000000000000000000000000000000000100 0
b0000000000000000000000000000000000000000000000000000000000000011 3
b00000000000000000000000000000000 5
b0000000000000000000000000000000000000000000000000000000000000010 6
1~
b0000000000000000000000000000000000000000000000000000000000000110 &!
#66
#67
#68
#69
#70
0~
#71
#72
#73
#74
#75
b0000000000000000000000000000000000000000000000000000000000000111 $
b0000000000000000000000000000000000000000000000000000000000000110 -
b0000000000000000000000000000000000000000000000000000000000000101 0
b0000000000000000000000000000000000000000000000000000000000000100 3
b0000000000000000000000000000000000000000000000000000000000000011 6
1~
b0000000000000000000000000000000000000000000000000000000000000111 &!
#76
#77
#78
#79
#80
0~
#81
#82
#83
#84
#85
b0000000000000000000000000000000000000000000000000000000000001000 $
b0000000000000000000000000000000000000000000000000000000000000111 -
b0000000000000000000000000000000000000000000000000000000000000110 0
b0000000000000000000000000000000000000000000000000000000000000101 3
b0000000000000000000000000000000000000000000000000000000000000100 6
1~
b0000000000000000000000000000000000000000000000000000000000001000 &!
#86
#87
#88
#89
#90
0~
#91
#92
#93
#94
#95
b0000000000000000000000000000000000000000000000000000000000001001 $
b0000000000000000000000000000000000000000000000000000000000001000 -
b0000000000000000000000000000000000000000000000000000000000000111 0
b0000000000000000000000000000000000000000000000000000000000000110 3
b0000000000000000000000000000000000000000000000000000000000000101 6
1~
b0000000000000000000000000000000000000000000000000000000000001001 &!
#96
#97
#98
#99
#100
0~
#101
#102
#103
#104
#105
b0000000000000000000000000000000000000000000000000000000000001010 $
b0000000000000000000000000000000000000000000000000000000000001001 -
b0000000000000000000000000000000000000000000000000000000000001000 0
b0000000000000000000000000000000000000000000000000000000000000111 3
b0000000000000000000000000000000000000000000000000000000000000110 6
1~
b0000000000000000000000000000000000000000000000000000000000001010 &!
#106
#107
#108
#109
#110
0~
#111
#112
#113
#114
#115
b0000000000000000000000000000000000000000000000000000000000001011 $
b0000000000000000000000000000000000000000000000000000000000001010 -
b0000000000000000000000000000000000000000000000000000000000001001 0
b0000000000000000000000000000000000000000000000000000000000001000 3
b0000000000000000000000000000000000000000000000000000000000000111 6
1~
b0000000000000000000000000000000000000000000000000000000000001011 &!
#116
#117
#118
#119
#120
0~
#121
#122
#123
#124
#125
b0000000000000000000000000000000000000000000000000000000000001100 $
b0000000000000000000000000000000000000000000000000000000000001011 -
b0000000000000000000000000000000000000000000000000000000000001010 0
b0000000000000000000000000000000000000000000000000000000000001001 3
b0000000000000000000000000000000000000000000000000000000000001000 6
1~
b0000000000000000000000000000000000000000000000000000000000001100 &!
#126
#127
#128
#129
#130
0~
#131
#132
#133
#134
#135
b0000000000000000000000000000000000000000000000000000000000001101 $
b0000000000000000000000000000000000000000000000000000000000001100 -
b0000000000000000000000000000000000000000000000000000000000001011 0
b0000000000000000000000000000000000000000000000000000000000001010 3
b0000000000000000000000000000000000000000000000000000000000001001 6
1~
b0000000000000000000000000000000000000000000000000000000000001101 &!
#136
#137
#138
#139
#140
0~
#141
#142
#143
#144
#145
b0000000000000000000000000000000000000000000000000000000000001110 $
b0000000000000000000000000000000000000000000000000000000000001101 -
b0000000000000000000000000000000000000000000000000000000000001100 0
b0000000000000000000000000000000000000000000000000000000000001011 3
b0000000000000000000000000000000000000000000000000000000000001010 6
1~
b0000000000000000000000000000000000000000000000000000000000001110 &!
#146
#147
#148
#149
#150
0~
#151
#152
#153
#154
#155
b0000000000000000000000000000000000000000000000000000000000001111 $
b0000000000000000000000000000000000000000000000000000000000001110 -
b0000000000000000000000000000000000000000000000000000000000001101 0
b0000000000000000000000000000000000000000000000000000000000001100 3
b0000000000000000000000000000000000000000000000000000000000001011 6
1~
b0000000000000000000000000000000000000000000000000000000000001111 &!
#156
#157
#158
#159
#160
0~
#161
#162
#163
#164
#165
b0000000000000000000000000000000000000000000000000000000000010000 $
b0000000000000000000000000000000000000000000000000000000000001111 -
b0000000000000000000000000000000000000000000000000000000000001110 0
b0000000000000000000000000000000000000000000000000000000000001101 3
b0000000000000000000000000000000000000000000000000000000000001100 6
1~
b0000000000000000000000000000000000000000000000000000000000010000 &!
#166
#167
#168
#169
#170
0~
#171
#172
#173
#174
#175
b0000000000000000000000000000000000000000000000000000000000010001 $
b0000000000000000000000000000000000000000000000000000000000010000 -
b0000000000000000000000000000000000000000000000000000000000001111 0
b0000000000000000000000000000000000000000000000000000000000001110 3
b0000000000000000000000000000000000000000000000000000000000001101 6
1~
b0000000000000000000000000000000000000000000000000000000000010001 &!
#176
#177
#178
#179
#180
0~
#181
#182
#183
#184
#185
b0000000000000000000000000000000000000000000000000000000000010010 $
b0000000000000000000000000000000000000000000000000000000000010001 -
b0000000000000000000000000000000000000000000000000000000000010000 0
b0000000000000000000000000000000000000000000000000000000000001111 3
b0000000000000000000000000000000000000000000000000000000000001110 6
1~
b0000000000000000000000000000000000000000000000000000000000010010 &!
#186
#187
#188
#189
#190
0~
#191
#192
#193
#194
#195
b0000000000000000000000000000000000000000000000000000000000010011 $
b0000000000000000000000000000000000000000000000000000000000010010 -
b0000000000000000000000000000000000000000000000000000000000010001 0
b0000000000000000000000000000000000000000000000000000000000010000 3
b0000000000000000000000000000000000000000000000000000000000001111 6
1~
b0000000000000000000000000000000000000000000000000000000000010011 &!
#196
#197
#198
#199
#200
0~
#201
#202
#203
#204
#205
b0000000000000000000000000000000000000000000000000000000000010100 $
b0000000000000000000000000000000000000000000000000000000000010011 -
b0000000000000000000000000000000000000000000000000000000000010010 0
b0000000000000000000000000000000000000000000000000000000000010001 3
b0000000000000000000000000000000000000000000000000000000000010000 6
1~
b0000000000000000000000000000000000000000000000000000000000010100 &!
#206
#207
#208
#209
#210
0~
#211
#212
#213
#214
#215
b0000000000000000000000000000000000000000000000000000000000010101 $
b0000000000000000000000000000000000000000000000000000000000010100 -
b0000000000000000000000000000000000000000000000000000000000010011 0
b0000000000000000000000000000000000000000000000000000000000010010 3
b0000000000000000000000000000000000000000000000000000000000010001 6
1~
b0000000000000000000000000000000000000000000000000000000000010101 &!
#216
#217
#218
#219
#220
0~
#221
#222
#223
#224
#225
b0000000000000000000000000000000000000000000000000000000000010110 $
b0000000000000000000000000000000000000000000000000000000000010101 -
b0000000000000000000000000000000000000000000000000000000000010100 0
b0000000000000000000000000000000000000000000000000000000000010011 3
b0000000000000000000000000000000000000000000000000000000000010010 6
1~
b0000000000000000000000000000000000000000000000000000000000010110 &!
#226
#227
#228
#229
#230
0~
#231
#232
#233
#234
#235
b0000000000000000000000000000000000000000000000000000000000010111 $
b0000000000000000000000000000000000000000000000000000000000010110 -
b0000000000000000000000000000000000000000000000000000000000010101 0
b0000000000000000000000000000000000000000000000000000000000010100 3
b0000000000000000000000000000000000000000000000000000000000010011 6
1~
b0000000000000000000000000000000000000000000000000000000000010111 &!
#236
#237
#238
#239
#240
0~
#241
#242
#243
#244
#245
b0000000000000000000000000000000000000000000000000000000000011000 $
b0000000000000000000000000000000000000000000000000000000000010111 -
b0000000000000000000000000000000000000000000000000000000000010110 0
b0000000000000000000000000000000000000000000000000000000000010101 3
b0000000000000000000000000000000000000000000000000000000000010100 6
1~
b0000000000000000000000000000000000000000000000000000000000011000 &!
#246
#247
#248
#249
#250
0~
#251
#252
#253
#254
#255
b0000000000000000000000000000000000000000000000000000000000011001 $
b0000000000000000000000000000000000000000000000000000000000011000 -
b0000000000000000000000000000000000000000000000000000000000010111 0
b0000000000000000000000000000000000000000000000000000000000010110 3
b0000000000000000000000000000000000000000000000000000000000010101 6
1~
b0000000000000000000000000000000000000000000000000000000000011001 &!
#256
#257
#258
#259
#260
0~
#261
#262
#263
#264
#265
b0000000000000000000000000000000000000000000000000000000000011010 $
b0000000000000000000000000000000000000000000000000000000000011001 -
b0000000000000000000000000000000000000000000000000000000000011000 0
b0000000000000000000000000000000000000000000000000000000000010111 3
b0000000000000000000000000000000000000000000000000000000000010110 6
1~
b0000000000000000000000000000000000000000000000000000000000011010 &!
#266
#267
#268
#269
#270
0~
#271
#272
#273
#274
#275
b0000000000000000000000000000000000000000000000000000000000011011 $
b0000000000000000000000000000000000000000000000000000000000011010 -
b0000000000000000000000000000000000000000000000000000000000011001 0
b0000000000000000000000000000000000000000000000000000000000011000 3
b0000000000000000000000000000000000000000000000000000000000010111 6
1~
b0000000000000000000000000000000000000000000000000000000000011011 &!
#276
#277
#278
#279
#280
0~
#281
#282
#283
#284
#285
b0000000000000000000000000000000000000000000000000000000000011100 $
b0000000000000000000000000000000000000000000000000000000000011011 -
b0000000000000000000000000000000000000000000000000000000000011010 0
b0000000000000000000000000000000000000000000000000000000000011001 3
b0000000000000000000000000000000000000000000000000000000000011000 6
1~
b0000000000000000000000000000000000000000000000000000000000011100 &!
#286
#287
#288
#289
#290
0~
#291
#292
#293
#294
#295
b0000000000000000000000000000000000000000000000000000000000011101 $
b0000000000000000000000000000000000000000000000000000000000011100 -
b0000000000000000000000000000000000000000000000000000000000011011 0
b0000000000000000000000000000000000000000000000000000000000011010 3
b0000000000000000000000000000000000000000000000000000000000011001 6
1~
b0000000000000000000000000000000000000000000000000000000000011101 &!
#296
#297
#298
#299
#300
0~
#301
#302
#303
#304
#305
b0000000000000000000000000000000000000000000000000000000000011110 $
b0000000000000000000000000000000000000000000000000000000000011101 -
b0000000000000000000000000000000000000000000000000000000000011100 0
b0000000000000000000000000000000000000000000000000000000000011011 3
b0000000000000000000000000000000000000000000000000000000000011010 6
1~
b0000000000000000000000000000000000000000000000000000000000011110 &!
#306
#307
#308
#309
#310
0~
#311
#312
#313
#314
#315
b0000000000000000000000000000000000000000000000000000000000011111 $
b0000000000000000000000000000000000000000000000000000000000011110 -
b0000000000000000000000000000000000000000000000000000000000011101 0
b0000000000000000000000000000000000000000000000000000000000011100 3
b0000000000000000000000000000000000000000000000000000000000011011 6
1~
b0000000000000000000000000000000000000000000000000000000000011111 &!
#316
#317
#318
#319
#320
0~
#321
#322
#323
#324
#325
b0000000000000000000000000000000000000000000000000000000000100000 $
b0000000000000000000000000000000000000000000000000000000000011111 -
b0000000000000000000000000000000000000000000000000000000000011110 0
b0000000000000000000000000000000000000000000000000000000000011101 3
b0000000000000000000000000000000000000000000000000000000000011100 6
1~
b0000000000000000000000000000000000000000000000000000000000100000 &!
#326
#327
#328
#329
#330
0~
#331
#332
#333
#334
#335
b0000000000000000000000000000000000000000000000000000000000100001 $
b0000000000000000000000000000000000000000000000000000000000100000 -
b0000000000000000000000000000000000000000000000000000000000011111 0
b0000000000000000000000000000000000000000000000000000000000011110 3
b0000000000000000000000000000000000000000000000000000000000011101 6
1~
b0000000000000000000000000000000000000000000000000000000000100001 &!
#336
#337
#338
#339
#340
0~
#341
#342
#343
#344
#345
b0000000000000000000000000000000000000000000000000000000000100010 $
b0000000000000000000000000000000000000000000000000000000000100001 -
b0000000000000000000000000000000000000000000000000000000000100000 0
b0000000000000000000000000000000000000000000000000000000000011111 3
b0000000000000000000000000000000000000000000000000000000000011110 6
1~
b0000000000000000000000000000000000000000000000000000000000100010 &!
#346
#347
#348
#349
#350
0~
#351
#352
#353
#354
#355
b0000000000000000000000000000000000000000000000000000000000100011 $
b0000000000000000000000000000000000000000000000000000000000100010 -
b0000000000000000000000000000000000000000000000000000000000100001 0
b0000000000000000000000000000000000000000000000000000000000100000 3
b0000000000000000000000000000000000000000000000000000000000011111 6
1~
b0000000000000000000000000000000000000000000000000000000000100011 &!
#356
#357
#358
#359
#360
0~
#361
#362
#363
#364
#365
b0000000000000000000000000000000000000000000000000000000000100100 $
b0000000000000000000000000000000000000000000000000000000000100011 -
b0000000000000000000000000000000000000000000000000000000000100010 0
b0000000000000000000000000000000000000000000000000000000000100001 3
b0000000000000000000000000000000000000000000000000000000000100000 6
1~
b0000000000000000000000000000000000000000000000000000000000100100 &!
#366
#367
#368
#369
#370
0~
#371
#372
#373
#374
#375
b0000000000000000000000000000000000000000000000000000000000100101 $
b0000000000000000000000000000000000000000000000000000000000100100 -
b0000000000000000000000000000000000000000000000000000000000100011 0
b0000000000000000000000000000000000000000000000000000000000100010 3
b0000000000000000000000000000000000000000000000000000000000100001 6
1~
b0000000000000000000000000000000000000000000000000000000000100101 &!
#376
#377
#378
#379
#380
0~
#381
#382
#383
#384
#385
b0000000000000000000000000000000000000000000000000000000000100110 $
b0000000000000000000000000000000000000000000000000000000000100101 -
b0000000000000000000000000000000000000000000000000000000000100100 0
b0000000000000000000000000000000000000000000000000000000000100011 3
b0000000000000000000000000000000000000000000000000000000000100010 6
1~
b0000000000000000000000000000000000000000000000000000000000100110 &!
#386
#387
#388
#389
#390
0~
#391
#392
#393
#394
#395
b0000000000000000000000000000000000000000000000000000000000100111 $
b0000000000000000000000000000000000000000000000000000000000100110 -
b0000000000000000000000000000000000000000000000000000000000100101 0
b0000000000000000000000000000000000000000000000000000000000100100 3
b0000000000000000000000000000000000000000000000000000000000100011 6
1~
b0000000000000000000000000000000000000000000000000000000000100111 &!
#396
#397
#398
#399
#400
0~
#401
#402
#403
#404
#405
b0000000000000000000000000000000000000000000000000000000000101000 $
b0000000000000000000000000000000000000000000000000000000000100111 -
b0000000000000000000000000000000000000000000000000000000000100110 0
b0000000000000000000000000000000000000000000000000000000000100101 3
b0000000000000000000000000000000000000000000000000000000000100100 6
1~
b0000000000000000000000000000000000000000000000000000000000101000 &!
#406
#407
#408
#409
#410
0~
#411
#412
#413
#414
#415
b0000000000000000000000000000000000000000000000000000000000101001 $
b0000000000000000000000000000000000000000000000000000000000101000 -
b0000000000000000000000000000000000000000000000000000000000100111 0
b0000000000000000000000000000000000000000000000000000000000100110 3
b0000000000000000000000000000000000000000000000000000000000100101 6
1~
b0000000000000000000000000000000000000000000000000000000000101001 &!
#416
#417
#418
#419
#420
0~
#421
#422
#423
#424
#425
b0000000000000000000000000000000000000000000000000000000000101010 $
b0000000000000000000000000000000000000000000000000000000000101001 -
b0000000000000000000000000000000000000000000000000000000000101000 0
b0000000000000000000000000000000000000000000000000000000000100111 3
b0000000000000000000000000000000000000000000000000000000000100110 6
1~
b0000000000000000000000000000000000000000000000000000000000101010 &!
#426
#427
#428
#429
#430
0~
#431
#432
#433
#434
#435
b0000000000000000000000000000000000000000000000000000000000101011 $
b0000000000000000000000000000000000000000000000000000000000101010 -
b0000000000000000000000000000000000000000000000000000000000101001 0
b0000000000000000000000000000000000000000000000000000000000101000 3
b0000000000000000000000000000000000000000000000000000000000100111 6
1~
b0000000000000000000000000000000000000000000000000000000000101011 &!
#436
#437
#438
#439
#440
0~
#441
#442
#443
#444
#445
b0000000000000000000000000000000000000000000000000000000000101100 $
b0000000000000000000000000000000000000000000000000000000000101011 -
b0000000000000000000000000000000000000000000000000000000000101010 0
b0000000000000000000000000000000000000000000000000000000000101001 3
b0000000000000000000000000000000000000000000000000000000000101000 6
1~
b0000000000000000000000000000000000000000000000000000000000101100 &!
#446
#447
#448
#449
#450
0~
#451
#452
#453
#454
#455
b0000000000000000000000000000000000000000000000000000000000101101 $
b0000000000000000000000000000000000000000000000000000000000101100 -
b0000000000000000000000000000000000000000000000000000000000101011 0
b0000000000000000000000000000000000000000000000000000000000101010 3
b0000000000000000000000000000000000000000000000000000000000101001 6
1~
b0000000000000000000000000000000000000000000000000000000000101101 &!
#456
#457
#458
#459
#460
0~
#461
#462
#463
#464
#465
b0000000000000000000000000000000000000000000000000000000000101110 $
b0000000000000000000000000000000000000000000000000000000000101101 -
b0000000000000000000000000000000000000000000000000000000000101100 0
b0000000000000000000000000000000000000000000000000000000000101011 3
b0000000000000000000000000000000000000000000000000000000000101010 6
1~
b0000000000000000000000000000000000000000000000000000000000101110 &!
#466
#467
#468
#469
#470
0~
#471
#472
#473
#474
#475
b0000000000000000000000000000000000000000000000000000000000101111 $
b0000000000000000000000000000000000000000000000000000000000101110 -
b0000000000000000000000000000000000000000000000000000000000101101 0
b0000000000000000000000000000000000000000000000000000000000101100 3
b0000000000000000000000000000000000000000000000000000000000101011 6
1~
b0000000000000000000000000000000000000000000000000000000000101111 &!
#476
#477
#478
#479
#480
0~
#481
#482
#483
#484
#485
b0000000000000000000000000000000000000000000000000000000000110000 $
b0000000000000000000000000000000000000000000000000000000000101111 -
b0000000000000000000000000000000000000000000000000000000000101110 0
b0000000000000000000000000000000000000000000000000000000000101101 3
b0000000000000000000000000000000000000000000000000000000000101100 6
1~
b0000000000000000000000000000000000000000000000000000000000110000 &!
#486
#487
#488
#489
#490
0~
#491
#492
#493
#494
#495
b0000000000000000000000000000000000000000000000000000000000110001 $
b0000000000000000000000000000000000000000000000000000000000110000 -
b0000000000000000000000000000000000000000000000000000000000101111 0
b0000000000000000000000000000000000000000000000000000000000101110 3
b0000000000000000000000000000000000000000000000000000000000101101 6
1~
b0000000000000000000000000000000000000000000000000000000000110001 &!
#496
#497
#498
#499
#500
0~
#501
#502
#503
#504
