Difftest_Platform/oscpu-framework/projects/zerocpu/build/2022-06-07@21:30:26.vcd
$version Generated by VerilatedVcd $end
$date Tue Jun  7 21:30:26 2022 $end
$timescale 1ps $end

 $scope module TOP $end
  $var wire  1 j! clock $end
  $var wire 64 l! io_logCtrl_log_begin [63:0] $end
  $var wire 64 n! io_logCtrl_log_end [63:0] $end
  $var wire 64 p! io_logCtrl_log_level [63:0] $end
  $var wire  1 r! io_perfInfo_clean $end
  $var wire  1 s! io_perfInfo_dump $end
  $var wire  8 w! io_uart_in_ch [7:0] $end
  $var wire  1 v! io_uart_in_valid $end
  $var wire  8 u! io_uart_out_ch [7:0] $end
  $var wire  1 t! io_uart_out_valid $end
  $var wire  1 k! reset $end
  $scope module SimTop $end
   $var wire 64 & ReadAddr [63:0] $end
   $var wire 64 $ ReadData [63:0] $end
   $var wire  1 ~! ReadEnable $end
   $var wire 64 "" WriteAddr [63:0] $end
   $var wire 64 $" WriteData [63:0] $end
   $var wire  1 !" WriteEnable $end
   $var wire 64 &" WriteMask [63:0] $end
   $var wire  1 j! clock $end
   $var wire  1 ( inst_valid $end
   $var wire 64 l! io_logCtrl_log_begin [63:0] $end
   $var wire 64 n! io_logCtrl_log_end [63:0] $end
   $var wire 64 p! io_logCtrl_log_level [63:0] $end
   $var wire  1 r! io_perfInfo_clean $end
   $var wire  1 s! io_perfInfo_dump $end
   $var wire  8 w! io_uart_in_ch [7:0] $end
   $var wire  1 v! io_uart_in_valid $end
   $var wire  8 u! io_uart_out_ch [7:0] $end
   $var wire  1 t! io_uart_out_valid $end
   $var wire 32 + r_inst [31:0] $end
   $var wire 64 ) r_pc [63:0] $end
   $var wire  1 , r_valid $end
   $var wire  1 k! reset $end
   $scope module U_DifftestArchIntRegState $end
    $var wire  1 j! clock $end
    $var wire  8 (" coreid [7:0] $end
    $var wire 64 - gpr_0 [63:0] $end
    $var wire 64 / gpr_1 [63:0] $end
    $var wire 64 A gpr_10 [63:0] $end
    $var wire 64 C gpr_11 [63:0] $end
    $var wire 64 E gpr_12 [63:0] $end
    $var wire 64 G gpr_13 [63:0] $end
    $var wire 64 I gpr_14 [63:0] $end
    $var wire 64 K gpr_15 [63:0] $end
    $var wire 64 M gpr_16 [63:0] $end
    $var wire 64 O gpr_17 [63:0] $end
    $var wire 64 Q gpr_18 [63:0] $end
    $var wire 64 S gpr_19 [63:0] $end
    $var wire 64 1 gpr_2 [63:0] $end
    $var wire 64 U gpr_20 [63:0] $end
    $var wire 64 W gpr_21 [63:0] $end
    $var wire 64 Y gpr_22 [63:0] $end
    $var wire 64 [ gpr_23 [63:0] $end
    $var wire 64 ] gpr_24 [63:0] $end
    $var wire 64 _ gpr_25 [63:0] $end
    $var wire 64 a gpr_26 [63:0] $end
    $var wire 64 c gpr_27 [63:0] $end
    $var wire 64 e gpr_28 [63:0] $end
    $var wire 64 g gpr_29 [63:0] $end
    $var wire 64 3 gpr_3 [63:0] $end
    $var wire 64 i gpr_30 [63:0] $end
    $var wire 64 k gpr_31 [63:0] $end
    $var wire 64 5 gpr_4 [63:0] $end
    $var wire 64 7 gpr_5 [63:0] $end
    $var wire 64 9 gpr_6 [63:0] $end
    $var wire 64 ; gpr_7 [63:0] $end
    $var wire 64 = gpr_8 [63:0] $end
    $var wire 64 ? gpr_9 [63:0] $end
   $upscope $end
   $scope module U_inst_commit $end
    $var wire  1 j! clock $end
    $var wire  8 (" coreid [7:0] $end
    $var wire  8 (" index [7:0] $end
    $var wire 32 + instr [31:0] $end
    $var wire  1 ~! isRVC $end
    $var wire 64 ) pc [63:0] $end
    $var wire  1 ~! scFailed $end
    $var wire  1 ~! skip $end
    $var wire  1 , valid $end
    $var wire 64 +" wdata [63:0] $end
    $var wire  8 *" wdest [7:0] $end
    $var wire  1 )" wen $end
   $upscope $end
   $scope module u_RAMHelper $end
    $var wire  1 j! clk $end
    $var wire 64 & rIdx [63:0] $end
    $var wire 64 m rIdx_r [63:0] $end
    $var wire 64 $ rdata [63:0] $end
    $var wire  1 ~! ren $end
    $var wire 64 "" wIdx [63:0] $end
    $var wire 64 -" wIdx_r [63:0] $end
    $var wire 64 $" wdata [63:0] $end
    $var wire  1 !" wen $end
    $var wire 64 &" wmask [63:0] $end
   $upscope $end
   $scope module u_zerocore $end
    $var wire 64 & RamReadAddr [63:0] $end
    $var wire 64 $ RamReadData [63:0] $end
    $var wire  1 ~! RamReadEnable $end
    $var wire 64 "" RamWriteAddr [63:0] $end
    $var wire 64 $" RamWriteData [63:0] $end
    $var wire  1 !" RamWriteEnable $end
    $var wire 64 &" RamWriteMask [63:0] $end
    $var wire  1 /" aluBsrc $end
    $var wire  4 p aluCtl [3:0] $end
    $var wire  1 j! clk $end
    $var wire 64 t imm [63:0] $end
    $var wire 64 z! ina [63:0] $end
    $var wire 64 t inb [63:0] $end
    $var wire 32 v instD [31:0] $end
    $var wire 32 y instE [31:0] $end
    $var wire 32 o instF [31:0] $end
    $var wire 32 | instM [31:0] $end
    $var wire 32 !! instW [31:0] $end
    $var wire 64 & pc [63:0] $end
    $var wire 64 w pcD [63:0] $end
    $var wire 64 z pcE [63:0] $end
    $var wire 64 & pcF [63:0] $end
    $var wire 64 } pcM [63:0] $end
    $var wire 64 "! pcW [63:0] $end
    $var wire 64 0" ra [63:0] $end
    $var wire  5 q ra_addr [4:0] $end
    $var wire  1 /" ra_en $end
    $var wire 64 x! rb [63:0] $end
    $var wire  5 r rb_addr [4:0] $end
    $var wire  1 /" rb_en $end
    $var wire  5 s rd_addr [4:0] $end
    $var wire  1 /" rd_en $end
    $var wire 64 |! res [63:0] $end
    $var wire  1 k! rst $end
    $var wire 64 2" rw [63:0] $end
    $scope module u_ex $end
     $var wire  4 p aluCtl [3:0] $end
     $var wire 64 z! ina [63:0] $end
     $var wire 64 t inb [63:0] $end
     $var wire 64 |! res [63:0] $end
    $upscope $end
    $scope module u_id $end
     $var wire  1 (! ADDI $end
     $var wire  1 /" aluBsrc $end
     $var wire  4 p aluCtl [3:0] $end
     $var wire  8 )! aluType [7:0] $end
     $var wire  3 %! funt3 [2:0] $end
     $var wire  1 '! funt3_000 $end
     $var wire 64 t imm [63:0] $end
     $var wire 32 v inst [31:0] $end
     $var wire  7 $! opcode [6:0] $end
     $var wire  1 &! opcode_001_0011 $end
     $var wire  5 q ra_addr [4:0] $end
     $var wire  1 /" ra_en $end
     $var wire  5 r rb_addr [4:0] $end
     $var wire  1 /" rb_en $end
     $var wire  5 s rd_addr [4:0] $end
     $var wire  1 /" rd_en $end
    $upscope $end
    $scope module u_if $end
     $var wire  1 j! clk $end
     $var wire 64 & pc [63:0] $end
     $var wire  1 k! rst $end
    $upscope $end
    $scope module u_inst_D2E $end
     $var wire 32 4" WIDTH [31:0] $end
     $var wire  1 j! clk $end
     $var wire 32 v din [31:0] $end
     $var wire 32 y dout [31:0] $end
     $var wire  1 k! rst $end
     $var wire  1 /" wen $end
    $upscope $end
    $scope module u_inst_E2M $end
     $var wire 32 4" WIDTH [31:0] $end
     $var wire  1 j! clk $end
     $var wire 32 y din [31:0] $end
     $var wire 32 | dout [31:0] $end
     $var wire  1 k! rst $end
     $var wire  1 /" wen $end
    $upscope $end
    $scope module u_inst_F2D $end
     $var wire 32 4" WIDTH [31:0] $end
     $var wire  1 j! clk $end
     $var wire 32 o din [31:0] $end
     $var wire 32 v dout [31:0] $end
     $var wire  1 k! rst $end
     $var wire  1 /" wen $end
    $upscope $end
    $scope module u_inst_M2W $end
     $var wire 32 4" WIDTH [31:0] $end
     $var wire  1 j! clk $end
     $var wire 32 | din [31:0] $end
     $var wire 32 !! dout [31:0] $end
     $var wire  1 k! rst $end
     $var wire  1 /" wen $end
    $upscope $end
    $scope module u_pc_D2E $end
     $var wire 32 5" WIDTH [31:0] $end
     $var wire  1 j! clk $end
     $var wire 64 w din [63:0] $end
     $var wire 64 z dout [63:0] $end
     $var wire  1 k! rst $end
     $var wire  1 /" wen $end
    $upscope $end
    $scope module u_pc_E2M $end
     $var wire 32 5" WIDTH [31:0] $end
     $var wire  1 j! clk $end
     $var wire 64 z din [63:0] $end
     $var wire 64 } dout [63:0] $end
     $var wire  1 k! rst $end
     $var wire  1 /" wen $end
    $upscope $end
    $scope module u_pc_F2D $end
     $var wire 32 5" WIDTH [31:0] $end
     $var wire  1 j! clk $end
     $var wire 64 & din [63:0] $end
     $var wire 64 w dout [63:0] $end
     $var wire  1 k! rst $end
     $var wire  1 /" wen $end
    $upscope $end
    $scope module u_pc_M2W $end
     $var wire 32 5" WIDTH [31:0] $end
     $var wire  1 j! clk $end
     $var wire 64 } din [63:0] $end
     $var wire 64 "! dout [63:0] $end
     $var wire  1 k! rst $end
     $var wire  1 /" wen $end
    $upscope $end
    $scope module u_regs $end
     $var wire 64 z! Ra [63:0] $end
     $var wire  5 q Ra_addr [4:0] $end
     $var wire  1 /" Ra_en $end
     $var wire 64 x! Rb [63:0] $end
     $var wire  5 r Rb_addr [4:0] $end
     $var wire  1 /" Rb_en $end
     $var wire 64 2" Rw [63:0] $end
     $var wire  5 s Rw_addr [4:0] $end
     $var wire  1 /" Rw_en $end
     $var wire  1 j! clk $end
     $var wire 32 # i [31:0] $end
     $var wire 64 *! regsheap[0] [63:0] $end
     $var wire 64 >! regsheap[10] [63:0] $end
     $var wire 64 @! regsheap[11] [63:0] $end
     $var wire 64 B! regsheap[12] [63:0] $end
     $var wire 64 D! regsheap[13] [63:0] $end
     $var wire 64 F! regsheap[14] [63:0] $end
     $var wire 64 H! regsheap[15] [63:0] $end
     $var wire 64 J! regsheap[16] [63:0] $end
     $var wire 64 L! regsheap[17] [63:0] $end
     $var wire 64 N! regsheap[18] [63:0] $end
     $var wire 64 P! regsheap[19] [63:0] $end
     $var wire 64 ,! regsheap[1] [63:0] $end
     $var wire 64 R! regsheap[20] [63:0] $end
     $var wire 64 T! regsheap[21] [63:0] $end
     $var wire 64 V! regsheap[22] [63:0] $end
     $var wire 64 X! regsheap[23] [63:0] $end
     $var wire 64 Z! regsheap[24] [63:0] $end
     $var wire 64 \! regsheap[25] [63:0] $end
     $var wire 64 ^! regsheap[26] [63:0] $end
     $var wire 64 `! regsheap[27] [63:0] $end
     $var wire 64 b! regsheap[28] [63:0] $end
     $var wire 64 d! regsheap[29] [63:0] $end
     $var wire 64 .! regsheap[2] [63:0] $end
     $var wire 64 f! regsheap[30] [63:0] $end
     $var wire 64 h! regsheap[31] [63:0] $end
     $var wire 64 0! regsheap[3] [63:0] $end
     $var wire 64 2! regsheap[4] [63:0] $end
     $var wire 64 4! regsheap[5] [63:0] $end
     $var wire 64 6! regsheap[6] [63:0] $end
     $var wire 64 8! regsheap[7] [63:0] $end
     $var wire 64 :! regsheap[8] [63:0] $end
     $var wire 64 <! regsheap[9] [63:0] $end
     $var wire  1 k! rst $end
    $upscope $end
   $upscope $end
  $upscope $end
 $upscope $end
$enddefinitions $end


#0
b00000000000000000000000000100000 #
b0000000000100000000000001001001100000000000100000000000010010011 $
b0000000000000000000000000000000010000000000000000000000000000100 &
0(
b0000000000000000000000000000000000000000000000000000000000000000 )
b00000000000000000000000000000000 +
0,
b0000000000000000000000000000000000000000000000000000000000000000 -
b0000000000000000000000000000000000000000000000000000000000000000 /
b0000000000000000000000000000000000000000000000000000000000000000 1
b0000000000000000000000000000000000000000000000000000000000000000 3
b0000000000000000000000000000000000000000000000000000000000000000 5
b0000000000000000000000000000000000000000000000000000000000000000 7
b0000000000000000000000000000000000000000000000000000000000000000 9
b0000000000000000000000000000000000000000000000000000000000000000 ;
b0000000000000000000000000000000000000000000000000000000000000000 =
b0000000000000000000000000000000000000000000000000000000000000000 ?
b0000000000000000000000000000000000000000000000000000000000000000 A
b0000000000000000000000000000000000000000000000000000000000000000 C
b0000000000000000000000000000000000000000000000000000000000000000 E
b0000000000000000000000000000000000000000000000000000000000000000 G
b0000000000000000000000000000000000000000000000000000000000000000 I
b0000000000000000000000000000000000000000000000000000000000000000 K
b0000000000000000000000000000000000000000000000000000000000000000 M
b0000000000000000000000000000000000000000000000000000000000000000 O
b0000000000000000000000000000000000000000000000000000000000000000 Q
b0000000000000000000000000000000000000000000000000000000000000000 S
b0000000000000000000000000000000000000000000000000000000000000000 U
b0000000000000000000000000000000000000000000000000000000000000000 W
b0000000000000000000000000000000000000000000000000000000000000000 Y
b0000000000000000000000000000000000000000000000000000000000000000 [
b0000000000000000000000000000000000000000000000000000000000000000 ]
b0000000000000000000000000000000000000000000000000000000000000000 _
b0000000000000000000000000000000000000000000000000000000000000000 a
b0000000000000000000000000000000000000000000000000000000000000000 c
b0000000000000000000000000000000000000000000000000000000000000000 e
b0000000000000000000000000000000000000000000000000000000000000000 g
b0000000000000000000000000000000000000000000000000000000000000000 i
b0000000000000000000000000000000000000000000000000000000000000000 k
b0000000000000000000000000000000000000000000000000000000000000100 m
b00000000000100000000000010010011 o
b0000 p
b00000 q
b00000 r
b00000 s
b0000000000000000000000000000000000000000000000000000000000000000 t
b00000000000000000000000000000000 v
b0000000000000000000000000000000010000000000000000000000000000000 w
b00000000000000000000000000000000 y
b0000000000000000000000000000000000000000000000000000000000000000 z
b00000000000000000000000000000000 |
b0000000000000000000000000000000000000000000000000000000000000000 }
b00000000000000000000000000000000 !!
b0000000000000000000000000000000000000000000000000000000000000000 "!
b0000000 $!
b000 %!
0&!
1'!
0(!
b00000000 )!
b0000000000000000000000000000000000000000000000000000000000000000 *!
b0000000000000000000000000000000000000000000000000000000000000000 ,!
b0000000000000000000000000000000000000000000000000000000000000000 .!
b0000000000000000000000000000000000000000000000000000000000000000 0!
b0000000000000000000000000000000000000000000000000000000000000000 2!
b0000000000000000000000000000000000000000000000000000000000000000 4!
b0000000000000000000000000000000000000000000000000000000000000000 6!
b0000000000000000000000000000000000000000000000000000000000000000 8!
b0000000000000000000000000000000000000000000000000000000000000000 :!
b0000000000000000000000000000000000000000000000000000000000000000 <!
b0000000000000000000000000000000000000000000000000000000000000000 >!
b0000000000000000000000000000000000000000000000000000000000000000 @!
b0000000000000000000000000000000000000000000000000000000000000000 B!
b0000000000000000000000000000000000000000000000000000000000000000 D!
b0000000000000000000000000000000000000000000000000000000000000000 F!
b0000000000000000000000000000000000000000000000000000000000000000 H!
b0000000000000000000000000000000000000000000000000000000000000000 J!
b0000000000000000000000000000000000000000000000000000000000000000 L!
b0000000000000000000000000000000000000000000000000000000000000000 N!
b0000000000000000000000000000000000000000000000000000000000000000 P!
b0000000000000000000000000000000000000000000000000000000000000000 R!
b0000000000000000000000000000000000000000000000000000000000000000 T!
b0000000000000000000000000000000000000000000000000000000000000000 V!
b0000000000000000000000000000000000000000000000000000000000000000 X!
b0000000000000000000000000000000000000000000000000000000000000000 Z!
b0000000000000000000000000000000000000000000000000000000000000000 \!
b0000000000000000000000000000000000000000000000000000000000000000 ^!
b0000000000000000000000000000000000000000000000000000000000000000 `!
b0000000000000000000000000000000000000000000000000000000000000000 b!
b0000000000000000000000000000000000000000000000000000000000000000 d!
b0000000000000000000000000000000000000000000000000000000000000000 f!
b0000000000000000000000000000000000000000000000000000000000000000 h!
1j!
0k!
b0000000000000000000000000000000000000000000000000000000000000000 l!
b1111111111111111111111111111111111111111111111111111111111111111 n!
b0000000000000000000000000000000000000000000000000000000000000000 p!
0r!
0s!
0t!
b00000000 u!
0v!
b00000000 w!
b0000000000000000000000000000000000000000000000000000000000000000 x!
b0000000000000000000000000000000000000000000000000000000000000000 z!
b0000000000000000000000000000000000000000000000000000000000000000 |!
0~!
0!"
b0000000000000000000000000000000000000000000000000000000000000000 ""
b0000000000000000000000000000000000000000000000000000000000000000 $"
b0000000000000000000000000000000000000000000000000000000000000000 &"
b00000000 ("
0)"
b00000000 *"
b0000000000000000000000000000000000000000000000000000000000000000 +"
b1111111111111111111111111111111110000000000000000000000000000000 -"
1/"
b0000000000000000000000000000000000000000000000000000000000000000 0"
b0000000000000000000000000000000000000000000000000000000000000000 2"
b00000000000000000000000000100000 4"
b00000000000000000000000001000000 5"
#0
b0000000000000000000000000110101100000000000100001000000010010011 $
b0000000000000000000000000000000010000000000000000000000000001000 &
b0000000000000000000000000000000000000000000000000000000000001000 m
b00000000000100001000000010010011 o
b00001 r
b00001 s
b0000000000000000000000000000000000000000000000000000000000000001 t
b00000000000100000000000010010011 v
b0000000000000000000000000000000010000000000000000000000000000100 w
b0000000000000000000000000000000010000000000000000000000000000000 z
b0010011 $!
1&!
1(!
b00000001 )!
b0000000000000000000000000000000000000000000000000000000000000001 |!
#0
b0000000000000000000000000000000010000000000000000000000000001100 &
b0000000000000000000000000000000000000000000000000000000000001100 m
b00001 q
b00000000000100001000000010010011 v
b0000000000000000000000000000000010000000000000000000000000001000 w
b00000000000100000000000010010011 y
b0000000000000000000000000000000010000000000000000000000000000100 z
b0000000000000000000000000000000010000000000000000000000000000000 }
#0
b0000000000000000000000000000000000000000000000000000000000000000 $
b0000000000000000000000000000000010000000000000000000000000010000 &
b0000000000000000000000000000000000000000000000000000000000010000 m
b00000000000000000000000000000000 o
b0000000000000000000000000000000010000000000000000000000000001100 w
b00000000000100001000000010010011 y
b0000000000000000000000000000000010000000000000000000000000001000 z
b00000000000100000000000010010011 |
b0000000000000000000000000000000010000000000000000000000000000100 }
b0000000000000000000000000000000010000000000000000000000000000000 "!
#0
b0000000000000000000000000000000010000000000000000000000000010100 &
1(
b0000000000000000000000000000000010000000000000000000000000000000 )
b0000000000000000000000000000000000000000000000000000000000010100 m
b00000 q
b00000 r
b00000 s
b0000000000000000000000000000000000000000000000000000000000000000 t
b00000000000000000000000000000000 v
b0000000000000000000000000000000010000000000000000000000000010000 w
b0000000000000000000000000000000010000000000000000000000000001100 z
b00000000000100001000000010010011 |
b0000000000000000000000000000000010000000000000000000000000001000 }
b00000000000100000000000010010011 !!
b0000000000000000000000000000000010000000000000000000000000000100 "!
b0000000 $!
0&!
0(!
b00000000 )!
b0000000000000000000000000000000000000000000000000000000000000000 |!
#0
b0000000000000000000000000000000010000000000000000000000000011000 &
b0000000000000000000000000000000010000000000000000000000000000100 )
b00000000000100000000000010010011 +
1,
b0000000000000000000000000000000000000000000000000000000000011000 m
b0000000000000000000000000000000010000000000000000000000000010100 w
b00000000000000000000000000000000 y
b0000000000000000000000000000000010000000000000000000000000010000 z
b0000000000000000000000000000000010000000000000000000000000001100 }
b00000000000100001000000010010011 !!
b0000000000000000000000000000000010000000000000000000000000001000 "!
#0
b0000000000000000000000000000000010000000000000000000000000011100 &
b0000000000000000000000000000000010000000000000000000000000001000 )
b00000000000100001000000010010011 +
b0000000000000000000000000000000000000000000000000000000000011100 m
b0000000000000000000000000000000010000000000000000000000000011000 w
b0000000000000000000000000000000010000000000000000000000000010100 z
b00000000000000000000000000000000 |
b0000000000000000000000000000000010000000000000000000000000010000 }
b0000000000000000000000000000000010000000000000000000000000001100 "!
#0
b0000000000000000000000000000000010000000000000000000000000100000 &
0(
b0000000000000000000000000000000010000000000000000000000000001100 )
b0000000000000000000000000000000000000000000000000000000000100000 m
b0000000000000000000000000000000010000000000000000000000000011100 w
b0000000000000000000000000000000010000000000000000000000000011000 z
b0000000000000000000000000000000010000000000000000000000000010100 }
b00000000000000000000000000000000 !!
b0000000000000000000000000000000010000000000000000000000000010000 "!
#0
b0000000000000000000000000000000010000000000000000000000000100100 &
b0000000000000000000000000000000010000000000000000000000000010000 )
b00000000000000000000000000000000 +
0,
b0000000000000000000000000000000000000000000000000000000000100100 m
b0000000000000000000000000000000010000000000000000000000000100000 w
b0000000000000000000000000000000010000000000000000000000000011100 z
b0000000000000000000000000000000010000000000000000000000000011000 }
b0000000000000000000000000000000010000000000000000000000000010100 "!
#0
b0000000000000000000000000000000010000000000000000000000000101000 &
b0000000000000000000000000000000010000000000000000000000000010100 )
b0000000000000000000000000000000000000000000000000000000000101000 m
b0000000000000000000000000000000010000000000000000000000000100100 w
b0000000000000000000000000000000010000000000000000000000000100000 z
b0000000000000000000000000000000010000000000000000000000000011100 }
b0000000000000000000000000000000010000000000000000000000000011000 "!
#0
b0000000000000000000000000000000010000000000000000000000000101100 &
b0000000000000000000000000000000010000000000000000000000000011000 )
b0000000000000000000000000000000000000000000000000000000000101100 m
b0000000000000000000000000000000010000000000000000000000000101000 w
b0000000000000000000000000000000010000000000000000000000000100100 z
b0000000000000000000000000000000010000000000000000000000000100000 }
b0000000000000000000000000000000010000000000000000000000000011100 "!
#0
b0000000000000000000000000000000010000000000000000000000000110000 &
b0000000000000000000000000000000010000000000000000000000000011100 )
b0000000000000000000000000000000000000000000000000000000000110000 m
b0000000000000000000000000000000010000000000000000000000000101100 w
b0000000000000000000000000000000010000000000000000000000000101000 z
b0000000000000000000000000000000010000000000000000000000000100100 }
b0000000000000000000000000000000010000000000000000000000000100000 "!
#0
b0000000000000000000000000000000010000000000000000000000000110100 &
b0000000000000000000000000000000010000000000000000000000000100000 )
b0000000000000000000000000000000000000000000000000000000000110100 m
b0000000000000000000000000000000010000000000000000000000000110000 w
b0000000000000000000000000000000010000000000000000000000000101100 z
b0000000000000000000000000000000010000000000000000000000000101000 }
b0000000000000000000000000000000010000000000000000000000000100100 "!
#0
b0000000000000000000000000000000010000000000000000000000000111000 &
b0000000000000000000000000000000010000000000000000000000000100100 )
b0000000000000000000000000000000000000000000000000000000000111000 m
b0000000000000000000000000000000010000000000000000000000000110100 w
b0000000000000000000000000000000010000000000000000000000000110000 z
b0000000000000000000000000000000010000000000000000000000000101100 }
b0000000000000000000000000000000010000000000000000000000000101000 "!
#0
b0000000000000000000000000000000010000000000000000000000000111100 &
b0000000000000000000000000000000010000000000000000000000000101000 )
b0000000000000000000000000000000000000000000000000000000000111100 m
b0000000000000000000000000000000010000000000000000000000000111000 w
b0000000000000000000000000000000010000000000000000000000000110100 z
b0000000000000000000000000000000010000000000000000000000000110000 }
b0000000000000000000000000000000010000000000000000000000000101100 "!
#0
b0000000000000000000000000000000010000000000000000000000001000000 &
b0000000000000000000000000000000010000000000000000000000000101100 )
b0000000000000000000000000000000000000000000000000000000001000000 m
b0000000000000000000000000000000010000000000000000000000000111100 w
b0000000000000000000000000000000010000000000000000000000000111000 z
b0000000000000000000000000000000010000000000000000000000000110100 }
b0000000000000000000000000000000010000000000000000000000000110000 "!
#0
b0000000000000000000000000000000010000000000000000000000001000100 &
b0000000000000000000000000000000010000000000000000000000000110000 )
b0000000000000000000000000000000000000000000000000000000001000100 m
b0000000000000000000000000000000010000000000000000000000001000000 w
b0000000000000000000000000000000010000000000000000000000000111100 z
b0000000000000000000000000000000010000000000000000000000000111000 }
b0000000000000000000000000000000010000000000000000000000000110100 "!
#0
b0000000000000000000000000000000010000000000000000000000001001000 &
b0000000000000000000000000000000010000000000000000000000000110100 )
b0000000000000000000000000000000000000000000000000000000001001000 m
b0000000000000000000000000000000010000000000000000000000001000100 w
b0000000000000000000000000000000010000000000000000000000001000000 z
b0000000000000000000000000000000010000000000000000000000000111100 }
b0000000000000000000000000000000010000000000000000000000000111000 "!
#0
b0000000000000000000000000000000010000000000000000000000001001100 &
b0000000000000000000000000000000010000000000000000000000000111000 )
b0000000000000000000000000000000000000000000000000000000001001100 m
b0000000000000000000000000000000010000000000000000000000001001000 w
b0000000000000000000000000000000010000000000000000000000001000100 z
b0000000000000000000000000000000010000000000000000000000001000000 }
b0000000000000000000000000000000010000000000000000000000000111100 "!
#0
b0000000000000000000000000000000010000000000000000000000001010000 &
b0000000000000000000000000000000010000000000000000000000000111100 )
b0000000000000000000000000000000000000000000000000000000001010000 m
b0000000000000000000000000000000010000000000000000000000001001100 w
b0000000000000000000000000000000010000000000000000000000001001000 z
b0000000000000000000000000000000010000000000000000000000001000100 }
b0000000000000000000000000000000010000000000000000000000001000000 "!
#0
b0000000000000000000000000000000010000000000000000000000001010100 &
b0000000000000000000000000000000010000000000000000000000001000000 )
b0000000000000000000000000000000000000000000000000000000001010100 m
b0000000000000000000000000000000010000000000000000000000001010000 w
b0000000000000000000000000000000010000000000000000000000001001100 z
b0000000000000000000000000000000010000000000000000000000001001000 }
b0000000000000000000000000000000010000000000000000000000001000100 "!
#0
b0000000000000000000000000000000010000000000000000000000001011000 &
b0000000000000000000000000000000010000000000000000000000001000100 )
b0000000000000000000000000000000000000000000000000000000001011000 m
b0000000000000000000000000000000010000000000000000000000001010100 w
b0000000000000000000000000000000010000000000000000000000001010000 z
b0000000000000000000000000000000010000000000000000000000001001100 }
b0000000000000000000000000000000010000000000000000000000001001000 "!
#0
b0000000000000000000000000000000010000000000000000000000001011100 &
b0000000000000000000000000000000010000000000000000000000001001000 )
b0000000000000000000000000000000000000000000000000000000001011100 m
b0000000000000000000000000000000010000000000000000000000001011000 w
b0000000000000000000000000000000010000000000000000000000001010100 z
b0000000000000000000000000000000010000000000000000000000001010000 }
b0000000000000000000000000000000010000000000000000000000001001100 "!
#0
b0000000000000000000000000000000010000000000000000000000001100000 &
b0000000000000000000000000000000010000000000000000000000001001100 )
b0000000000000000000000000000000000000000000000000000000001100000 m
b0000000000000000000000000000000010000000000000000000000001011100 w
b0000000000000000000000000000000010000000000000000000000001011000 z
b0000000000000000000000000000000010000000000000000000000001010100 }
b0000000000000000000000000000000010000000000000000000000001010000 "!
#0
b0000000000000000000000000000000010000000000000000000000001100100 &
b0000000000000000000000000000000010000000000000000000000001010000 )
b0000000000000000000000000000000000000000000000000000000001100100 m
b0000000000000000000000000000000010000000000000000000000001100000 w
b0000000000000000000000000000000010000000000000000000000001011100 z
b0000000000000000000000000000000010000000000000000000000001011000 }
b0000000000000000000000000000000010000000000000000000000001010100 "!
#0
b0000000000000000000000000000000010000000000000000000000001101000 &
b0000000000000000000000000000000010000000000000000000000001010100 )
b0000000000000000000000000000000000000000000000000000000001101000 m
b0000000000000000000000000000000010000000000000000000000001100100 w
b0000000000000000000000000000000010000000000000000000000001100000 z
b0000000000000000000000000000000010000000000000000000000001011100 }
b0000000000000000000000000000000010000000000000000000000001011000 "!
#0
b0000000000000000000000000000000010000000000000000000000001101100 &
b0000000000000000000000000000000010000000000000000000000001011000 )
b0000000000000000000000000000000000000000000000000000000001101100 m
b0000000000000000000000000000000010000000000000000000000001101000 w
b0000000000000000000000000000000010000000000000000000000001100100 z
b0000000000000000000000000000000010000000000000000000000001100000 }
b0000000000000000000000000000000010000000000000000000000001011100 "!
#0
b0000000000000000000000000000000010000000000000000000000001110000 &
b0000000000000000000000000000000010000000000000000000000001011100 )
b0000000000000000000000000000000000000000000000000000000001110000 m
b0000000000000000000000000000000010000000000000000000000001101100 w
b0000000000000000000000000000000010000000000000000000000001101000 z
b0000000000000000000000000000000010000000000000000000000001100100 }
b0000000000000000000000000000000010000000000000000000000001100000 "!
#0
b0000000000000000000000000000000010000000000000000000000001110100 &
b0000000000000000000000000000000010000000000000000000000001100000 )
b0000000000000000000000000000000000000000000000000000000001110100 m
b0000000000000000000000000000000010000000000000000000000001110000 w
b0000000000000000000000000000000010000000000000000000000001101100 z
b0000000000000000000000000000000010000000000000000000000001101000 }
b0000000000000000000000000000000010000000000000000000000001100100 "!
#0
b0000000000000000000000000000000010000000000000000000000001111000 &
b0000000000000000000000000000000010000000000000000000000001100100 )
b0000000000000000000000000000000000000000000000000000000001111000 m
b0000000000000000000000000000000010000000000000000000000001110100 w
b0000000000000000000000000000000010000000000000000000000001110000 z
b0000000000000000000000000000000010000000000000000000000001101100 }
b0000000000000000000000000000000010000000000000000000000001101000 "!
#0
b0000000000000000000000000000000010000000000000000000000001111100 &
b0000000000000000000000000000000010000000000000000000000001101000 )
b0000000000000000000000000000000000000000000000000000000001111100 m
b0000000000000000000000000000000010000000000000000000000001111000 w
b0000000000000000000000000000000010000000000000000000000001110100 z
b0000000000000000000000000000000010000000000000000000000001110000 }
b0000000000000000000000000000000010000000000000000000000001101100 "!
#0
b0000000000000000000000000000000010000000000000000000000010000000 &
b0000000000000000000000000000000010000000000000000000000001101100 )
b0000000000000000000000000000000000000000000000000000000010000000 m
b0000000000000000000000000000000010000000000000000000000001111100 w
b0000000000000000000000000000000010000000000000000000000001111000 z
b0000000000000000000000000000000010000000000000000000000001110100 }
b0000000000000000000000000000000010000000000000000000000001110000 "!
#0
b0000000000000000000000000000000010000000000000000000000010000100 &
b0000000000000000000000000000000010000000000000000000000001110000 )
b0000000000000000000000000000000000000000000000000000000010000100 m
b0000000000000000000000000000000010000000000000000000000010000000 w
b0000000000000000000000000000000010000000000000000000000001111100 z
b0000000000000000000000000000000010000000000000000000000001111000 }
b0000000000000000000000000000000010000000000000000000000001110100 "!
#0
b0000000000000000000000000000000010000000000000000000000010001000 &
b0000000000000000000000000000000010000000000000000000000001110100 )
b0000000000000000000000000000000000000000000000000000000010001000 m
b0000000000000000000000000000000010000000000000000000000010000100 w
b0000000000000000000000000000000010000000000000000000000010000000 z
b0000000000000000000000000000000010000000000000000000000001111100 }
b0000000000000000000000000000000010000000000000000000000001111000 "!
#0
b0000000000000000000000000000000010000000000000000000000010001100 &
b0000000000000000000000000000000010000000000000000000000001111000 )
b0000000000000000000000000000000000000000000000000000000010001100 m
b0000000000000000000000000000000010000000000000000000000010001000 w
b0000000000000000000000000000000010000000000000000000000010000100 z
b0000000000000000000000000000000010000000000000000000000010000000 }
b0000000000000000000000000000000010000000000000000000000001111100 "!
#0
b0000000000000000000000000000000010000000000000000000000010010000 &
b0000000000000000000000000000000010000000000000000000000001111100 )
b0000000000000000000000000000000000000000000000000000000010010000 m
b0000000000000000000000000000000010000000000000000000000010001100 w
b0000000000000000000000000000000010000000000000000000000010001000 z
b0000000000000000000000000000000010000000000000000000000010000100 }
b0000000000000000000000000000000010000000000000000000000010000000 "!
